%!PS-Adobe-3.0 EPSF-3.0
%%Creator: (MATLAB, The Mathworks, Inc. Version 9.13.0.2166757 \(R2022b\) Update 4. Operating System: Linux)
%%Title: /home/david/Documents/Uni/clases/MIII/TFM/Memoria_TFM/ch_6/figures/bodeeps.eps
%%CreationDate: 2023-05-07T22:51:40
%%Pages: (atend)
%%BoundingBox:     0     0  1440   749
%%LanguageLevel: 3
%%EndComments
%%BeginProlog
%%BeginResource: procset (Apache XML Graphics Std ProcSet) 1.2 0
%%Version: 1.2 0
%%Copyright: (Copyright 2001-2003,2010 The Apache Software Foundation. License terms: http://www.apache.org/licenses/LICENSE-2.0)
/bd{bind def}bind def
/ld{load def}bd
/GR/grestore ld
/GS/gsave ld
/RM/rmoveto ld
/C/curveto ld
/t/show ld
/L/lineto ld
/ML/setmiterlimit ld
/CT/concat ld
/f/fill ld
/N/newpath ld
/S/stroke ld
/CC/setcmykcolor ld
/A/ashow ld
/cp/closepath ld
/RC/setrgbcolor ld
/LJ/setlinejoin ld
/GC/setgray ld
/LW/setlinewidth ld
/M/moveto ld
/re {4 2 roll M
1 index 0 rlineto
0 exch rlineto
neg 0 rlineto
cp } bd
/_ctm matrix def
/_tm matrix def
/BT { _ctm currentmatrix pop matrix _tm copy pop 0 0 moveto } bd
/ET { _ctm setmatrix } bd
/iTm { _ctm setmatrix _tm concat } bd
/Tm { _tm astore pop iTm 0 0 moveto } bd
/ux 0.0 def
/uy 0.0 def
/F {
  /Tp exch def
  /Tf exch def
  Tf findfont Tp scalefont setfont
  /cf Tf def  /cs Tp def
} bd
/ULS {currentpoint /uy exch def /ux exch def} bd
/ULE {
  /Tcx currentpoint pop def
  gsave
  newpath
  cf findfont cs scalefont dup
  /FontMatrix get 0 get /Ts exch def /FontInfo get dup
  /UnderlinePosition get Ts mul /To exch def
  /UnderlineThickness get Ts mul /Tt exch def
  ux uy To add moveto  Tcx uy To add lineto
  Tt setlinewidth stroke
  grestore
} bd
/OLE {
  /Tcx currentpoint pop def
  gsave
  newpath
  cf findfont cs scalefont dup
  /FontMatrix get 0 get /Ts exch def /FontInfo get dup
  /UnderlinePosition get Ts mul /To exch def
  /UnderlineThickness get Ts mul /Tt exch def
  ux uy To add cs add moveto Tcx uy To add cs add lineto
  Tt setlinewidth stroke
  grestore
} bd
/SOE {
  /Tcx currentpoint pop def
  gsave
  newpath
  cf findfont cs scalefont dup
  /FontMatrix get 0 get /Ts exch def /FontInfo get dup
  /UnderlinePosition get Ts mul /To exch def
  /UnderlineThickness get Ts mul /Tt exch def
  ux uy To add cs 10 mul 26 idiv add moveto Tcx uy To add cs 10 mul 26 idiv add lineto
  Tt setlinewidth stroke
  grestore
} bd
/QT {
/Y22 exch store
/X22 exch store
/Y21 exch store
/X21 exch store
currentpoint
/Y21 load 2 mul add 3 div exch
/X21 load 2 mul add 3 div exch
/X21 load 2 mul /X22 load add 3 div
/Y21 load 2 mul /Y22 load add 3 div
/X22 load /Y22 load curveto
} bd
/SSPD {
dup length /d exch dict def
{
/v exch def
/k exch def
currentpagedevice k known {
/cpdv currentpagedevice k get def
v cpdv ne {
/upd false def
/nullv v type /nulltype eq def
/nullcpdv cpdv type /nulltype eq def
nullv nullcpdv or
{
/upd true def
} {
/sametype v type cpdv type eq def
sametype {
v type /arraytype eq {
/vlen v length def
/cpdvlen cpdv length def
vlen cpdvlen eq {
0 1 vlen 1 sub {
/i exch def
/obj v i get def
/cpdobj cpdv i get def
obj cpdobj ne {
/upd true def
exit
} if
} for
} {
/upd true def
} ifelse
} {
v type /dicttype eq {
v {
/dv exch def
/dk exch def
/cpddv cpdv dk get def
dv cpddv ne {
/upd true def
exit
} if
} forall
} {
/upd true def
} ifelse
} ifelse
} if
} ifelse
upd true eq {
d k v put
} if
} if
} if
} forall
d length 0 gt {
d setpagedevice
} if
} bd
/RE { % /NewFontName [NewEncodingArray] /FontName RE -
  findfont dup length dict begin
  {
    1 index /FID ne
    {def} {pop pop} ifelse
  } forall
  /Encoding exch def
  /FontName 1 index def
  currentdict definefont pop
  end
} bind def
%%EndResource
%%BeginResource: procset (Apache XML Graphics EPS ProcSet) 1.0 0
%%Version: 1.0 0
%%Copyright: (Copyright 2002-2003 The Apache Software Foundation. License terms: http://www.apache.org/licenses/LICENSE-2.0)
/BeginEPSF { %def
/b4_Inc_state save def         % Save state for cleanup
/dict_count countdictstack def % Count objects on dict stack
/op_count count 1 sub def      % Count objects on operand stack
userdict begin                 % Push userdict on dict stack
/showpage { } def              % Redefine showpage, { } = null proc
0 setgray 0 setlinecap         % Prepare graphics state
1 setlinewidth 0 setlinejoin
10 setmiterlimit [ ] 0 setdash newpath
/languagelevel where           % If level not equal to 1 then
{pop languagelevel             % set strokeadjust and
1 ne                           % overprint to their defaults.
{false setstrokeadjust false setoverprint
} if
} if
} bd
/EndEPSF { %def
count op_count sub {pop} repeat            % Clean up stacks
countdictstack dict_count sub {end} repeat
b4_Inc_state restore
} bd
%%EndResource
%FOPBeginFontDict
%%IncludeResource: font Courier-Oblique
%%IncludeResource: font Courier-BoldOblique
%%IncludeResource: font Courier-Bold
%%IncludeResource: font ZapfDingbats
%%IncludeResource: font Symbol
%%IncludeResource: font Helvetica
%%IncludeResource: font Helvetica-Oblique
%%IncludeResource: font Helvetica-Bold
%%IncludeResource: font Helvetica-BoldOblique
%%IncludeResource: font Times-Roman
%%IncludeResource: font Times-Italic
%%IncludeResource: font Times-Bold
%%IncludeResource: font Times-BoldItalic
%%IncludeResource: font Courier
%FOPEndFontDict
%%BeginResource: encoding WinAnsiEncoding
/WinAnsiEncoding [
/.notdef /.notdef /.notdef /.notdef /.notdef
/.notdef /.notdef /.notdef /.notdef /.notdef
/.notdef /.notdef /.notdef /.notdef /.notdef
/.notdef /.notdef /.notdef /.notdef /.notdef
/.notdef /.notdef /.notdef /.notdef /.notdef
/.notdef /.notdef /.notdef /.notdef /.notdef
/.notdef /.notdef /space /exclam /quotedbl
/numbersign /dollar /percent /ampersand /quotesingle
/parenleft /parenright /asterisk /plus /comma
/hyphen /period /slash /zero /one
/two /three /four /five /six
/seven /eight /nine /colon /semicolon
/less /equal /greater /question /at
/A /B /C /D /E
/F /G /H /I /J
/K /L /M /N /O
/P /Q /R /S /T
/U /V /W /X /Y
/Z /bracketleft /backslash /bracketright /asciicircum
/underscore /quoteleft /a /b /c
/d /e /f /g /h
/i /j /k /l /m
/n /o /p /q /r
/s /t /u /v /w
/x /y /z /braceleft /bar
/braceright /asciitilde /bullet /Euro /bullet
/quotesinglbase /florin /quotedblbase /ellipsis /dagger
/daggerdbl /circumflex /perthousand /Scaron /guilsinglleft
/OE /bullet /Zcaron /bullet /bullet
/quoteleft /quoteright /quotedblleft /quotedblright /bullet
/endash /emdash /asciitilde /trademark /scaron
/guilsinglright /oe /bullet /zcaron /Ydieresis
/space /exclamdown /cent /sterling /currency
/yen /brokenbar /section /dieresis /copyright
/ordfeminine /guillemotleft /logicalnot /sfthyphen /registered
/macron /degree /plusminus /twosuperior /threesuperior
/acute /mu /paragraph /middot /cedilla
/onesuperior /ordmasculine /guillemotright /onequarter /onehalf
/threequarters /questiondown /Agrave /Aacute /Acircumflex
/Atilde /Adieresis /Aring /AE /Ccedilla
/Egrave /Eacute /Ecircumflex /Edieresis /Igrave
/Iacute /Icircumflex /Idieresis /Eth /Ntilde
/Ograve /Oacute /Ocircumflex /Otilde /Odieresis
/multiply /Oslash /Ugrave /Uacute /Ucircumflex
/Udieresis /Yacute /Thorn /germandbls /agrave
/aacute /acircumflex /atilde /adieresis /aring
/ae /ccedilla /egrave /eacute /ecircumflex
/edieresis /igrave /iacute /icircumflex /idieresis
/eth /ntilde /ograve /oacute /ocircumflex
/otilde /odieresis /divide /oslash /ugrave
/uacute /ucircumflex /udieresis /yacute /thorn
/ydieresis
] def
%%EndResource
%FOPBeginFontReencode
/Courier-Oblique findfont
dup length dict begin
  {1 index /FID ne {def} {pop pop} ifelse} forall
  /Encoding WinAnsiEncoding def
  currentdict
end
/Courier-Oblique exch definefont pop
/Courier-BoldOblique findfont
dup length dict begin
  {1 index /FID ne {def} {pop pop} ifelse} forall
  /Encoding WinAnsiEncoding def
  currentdict
end
/Courier-BoldOblique exch definefont pop
/Courier-Bold findfont
dup length dict begin
  {1 index /FID ne {def} {pop pop} ifelse} forall
  /Encoding WinAnsiEncoding def
  currentdict
end
/Courier-Bold exch definefont pop
/Helvetica findfont
dup length dict begin
  {1 index /FID ne {def} {pop pop} ifelse} forall
  /Encoding WinAnsiEncoding def
  currentdict
end
/Helvetica exch definefont pop
/Helvetica-Oblique findfont
dup length dict begin
  {1 index /FID ne {def} {pop pop} ifelse} forall
  /Encoding WinAnsiEncoding def
  currentdict
end
/Helvetica-Oblique exch definefont pop
/Helvetica-Bold findfont
dup length dict begin
  {1 index /FID ne {def} {pop pop} ifelse} forall
  /Encoding WinAnsiEncoding def
  currentdict
end
/Helvetica-Bold exch definefont pop
/Helvetica-BoldOblique findfont
dup length dict begin
  {1 index /FID ne {def} {pop pop} ifelse} forall
  /Encoding WinAnsiEncoding def
  currentdict
end
/Helvetica-BoldOblique exch definefont pop
/Times-Roman findfont
dup length dict begin
  {1 index /FID ne {def} {pop pop} ifelse} forall
  /Encoding WinAnsiEncoding def
  currentdict
end
/Times-Roman exch definefont pop
/Times-Italic findfont
dup length dict begin
  {1 index /FID ne {def} {pop pop} ifelse} forall
  /Encoding WinAnsiEncoding def
  currentdict
end
/Times-Italic exch definefont pop
/Times-Bold findfont
dup length dict begin
  {1 index /FID ne {def} {pop pop} ifelse} forall
  /Encoding WinAnsiEncoding def
  currentdict
end
/Times-Bold exch definefont pop
/Times-BoldItalic findfont
dup length dict begin
  {1 index /FID ne {def} {pop pop} ifelse} forall
  /Encoding WinAnsiEncoding def
  currentdict
end
/Times-BoldItalic exch definefont pop
/Courier findfont
dup length dict begin
  {1 index /FID ne {def} {pop pop} ifelse} forall
  /Encoding WinAnsiEncoding def
  currentdict
end
/Courier exch definefont pop
%FOPEndFontReencode
%%EndProlog
%%Page: 1 1
%%PageBoundingBox: 0 0 1440 749
%%BeginPageSetup
[1 0 0 -1 0 749] CT
%%EndPageSetup
GS
[0.75 0 0 0.75 0 -0.25] CT
1 GC
N
0 0 1920 999 re
f
GR
GS
[0.75 0 0 0.75 0 -0.25] CT
1 GC
N
0 0 1920 999 re
f
GR
GS
[0.75 0 0 0.75 0 -0.25] CT
1 GC
N
262 509 M
1738 509 L
1738 95 L
262 95 L
cp
f
GR
GS
[0.75 0 0 0.75 0 -0.25] CT
0.849 GC
[1 3] 0 setdash
2 LJ
0.667 LW
N
350.864 509 M
350.864 95 L
S
GR
GS
[0.75 0 0 0.75 0 -0.25] CT
0.849 GC
[1 3] 0 setdash
2 LJ
0.667 LW
N
402.846 509 M
402.846 95 L
S
GR
GS
[0.75 0 0 0.75 0 -0.25] CT
0.849 GC
[1 3] 0 setdash
2 LJ
0.667 LW
N
439.728 509 M
439.728 95 L
S
GR
GS
[0.75 0 0 0.75 0 -0.25] CT
0.849 GC
[1 3] 0 setdash
2 LJ
0.667 LW
N
468.336 509 M
468.336 95 L
S
GR
GS
[0.75 0 0 0.75 0 -0.25] CT
0.849 GC
[1 3] 0 setdash
2 LJ
0.667 LW
N
491.71 509 M
491.71 95 L
S
GR
GS
[0.75 0 0 0.75 0 -0.25] CT
0.849 GC
[1 3] 0 setdash
2 LJ
0.667 LW
N
511.473 509 M
511.473 95 L
S
GR
GS
[0.75 0 0 0.75 0 -0.25] CT
0.849 GC
[1 3] 0 setdash
2 LJ
0.667 LW
N
528.592 509 M
528.592 95 L
S
GR
GS
[0.75 0 0 0.75 0 -0.25] CT
0.849 GC
[1 3] 0 setdash
2 LJ
0.667 LW
N
543.692 509 M
543.692 95 L
S
GR
GS
[0.75 0 0 0.75 0 -0.25] CT
0.849 GC
[1 3] 0 setdash
2 LJ
0.667 LW
N
646.064 509 M
646.064 95 L
S
GR
GS
[0.75 0 0 0.75 0 -0.25] CT
0.849 GC
[1 3] 0 setdash
2 LJ
0.667 LW
N
698.046 509 M
698.046 95 L
S
GR
GS
[0.75 0 0 0.75 0 -0.25] CT
0.849 GC
[1 3] 0 setdash
2 LJ
0.667 LW
N
734.928 509 M
734.928 95 L
S
GR
GS
[0.75 0 0 0.75 0 -0.25] CT
0.849 GC
[1 3] 0 setdash
2 LJ
0.667 LW
N
763.536 509 M
763.536 95 L
S
GR
GS
[0.75 0 0 0.75 0 -0.25] CT
0.849 GC
[1 3] 0 setdash
2 LJ
0.667 LW
N
786.91 509 M
786.91 95 L
S
GR
GS
[0.75 0 0 0.75 0 -0.25] CT
0.849 GC
[1 3] 0 setdash
2 LJ
0.667 LW
N
806.673 509 M
806.673 95 L
S
GR
GS
[0.75 0 0 0.75 0 -0.25] CT
0.849 GC
[1 3] 0 setdash
2 LJ
0.667 LW
N
823.792 509 M
823.792 95 L
S
GR
GS
[0.75 0 0 0.75 0 -0.25] CT
0.849 GC
[1 3] 0 setdash
2 LJ
0.667 LW
N
838.892 509 M
838.892 95 L
S
GR
GS
[0.75 0 0 0.75 0 -0.25] CT
0.849 GC
[1 3] 0 setdash
2 LJ
0.667 LW
N
941.264 509 M
941.264 95 L
S
GR
GS
[0.75 0 0 0.75 0 -0.25] CT
0.849 GC
[1 3] 0 setdash
2 LJ
0.667 LW
N
993.246 509 M
993.246 95 L
S
GR
GS
[0.75 0 0 0.75 0 -0.25] CT
0.849 GC
[1 3] 0 setdash
2 LJ
0.667 LW
N
1030.128 509 M
1030.128 95 L
S
GR
GS
[0.75 0 0 0.75 0 -0.25] CT
0.849 GC
[1 3] 0 setdash
2 LJ
0.667 LW
N
1058.736 509 M
1058.736 95 L
S
GR
GS
[0.75 0 0 0.75 0 -0.25] CT
0.849 GC
[1 3] 0 setdash
2 LJ
0.667 LW
N
1082.11 509 M
1082.11 95 L
S
GR
GS
[0.75 0 0 0.75 0 -0.25] CT
0.849 GC
[1 3] 0 setdash
2 LJ
0.667 LW
N
1101.873 509 M
1101.873 95 L
S
GR
GS
[0.75 0 0 0.75 0 -0.25] CT
0.849 GC
[1 3] 0 setdash
2 LJ
0.667 LW
N
1118.992 509 M
1118.992 95 L
S
GR
GS
[0.75 0 0 0.75 0 -0.25] CT
0.849 GC
[1 3] 0 setdash
2 LJ
0.667 LW
N
1134.092 509 M
1134.092 95 L
S
GR
GS
[0.75 0 0 0.75 0 -0.25] CT
0.849 GC
[1 3] 0 setdash
2 LJ
0.667 LW
N
1236.464 509 M
1236.464 95 L
S
GR
GS
[0.75 0 0 0.75 0 -0.25] CT
0.849 GC
[1 3] 0 setdash
2 LJ
0.667 LW
N
1288.446 509 M
1288.446 95 L
S
GR
GS
[0.75 0 0 0.75 0 -0.25] CT
0.849 GC
[1 3] 0 setdash
2 LJ
0.667 LW
N
1325.328 509 M
1325.328 95 L
S
GR
GS
[0.75 0 0 0.75 0 -0.25] CT
0.849 GC
[1 3] 0 setdash
2 LJ
0.667 LW
N
1353.936 509 M
1353.936 95 L
S
GR
GS
[0.75 0 0 0.75 0 -0.25] CT
0.849 GC
[1 3] 0 setdash
2 LJ
0.667 LW
N
1377.31 509 M
1377.31 95 L
S
GR
GS
[0.75 0 0 0.75 0 -0.25] CT
0.849 GC
[1 3] 0 setdash
2 LJ
0.667 LW
N
1397.073 509 M
1397.073 95 L
S
GR
GS
[0.75 0 0 0.75 0 -0.25] CT
0.849 GC
[1 3] 0 setdash
2 LJ
0.667 LW
N
1414.192 509 M
1414.192 95 L
S
GR
GS
[0.75 0 0 0.75 0 -0.25] CT
0.849 GC
[1 3] 0 setdash
2 LJ
0.667 LW
N
1429.292 509 M
1429.292 95 L
S
GR
GS
[0.75 0 0 0.75 0 -0.25] CT
0.849 GC
[1 3] 0 setdash
2 LJ
0.667 LW
N
1531.664 509 M
1531.664 95 L
S
GR
GS
[0.75 0 0 0.75 0 -0.25] CT
0.849 GC
[1 3] 0 setdash
2 LJ
0.667 LW
N
1583.646 509 M
1583.646 95 L
S
GR
GS
[0.75 0 0 0.75 0 -0.25] CT
0.849 GC
[1 3] 0 setdash
2 LJ
0.667 LW
N
1620.528 509 M
1620.528 95 L
S
GR
GS
[0.75 0 0 0.75 0 -0.25] CT
0.849 GC
[1 3] 0 setdash
2 LJ
0.667 LW
N
1649.136 509 M
1649.136 95 L
S
GR
GS
[0.75 0 0 0.75 0 -0.25] CT
0.849 GC
[1 3] 0 setdash
2 LJ
0.667 LW
N
1672.51 509 M
1672.51 95 L
S
GR
GS
[0.75 0 0 0.75 0 -0.25] CT
0.849 GC
[1 3] 0 setdash
2 LJ
0.667 LW
N
1692.273 509 M
1692.273 95 L
S
GR
GS
[0.75 0 0 0.75 0 -0.25] CT
0.849 GC
[1 3] 0 setdash
2 LJ
0.667 LW
N
1709.392 509 M
1709.392 95 L
S
GR
GS
[0.75 0 0 0.75 0 -0.25] CT
0.849 GC
[1 3] 0 setdash
2 LJ
0.667 LW
N
1724.492 509 M
1724.492 95 L
S
GR
GS
[0.75 0 0 0.75 0 -0.25] CT
0.873 GC
1 LJ
0.667 LW
N
262 509 M
262 95 L
S
GR
GS
[0.75 0 0 0.75 0 -0.25] CT
0.873 GC
1 LJ
0.667 LW
N
557.2 509 M
557.2 95 L
S
GR
GS
[0.75 0 0 0.75 0 -0.25] CT
0.873 GC
1 LJ
0.667 LW
N
852.4 509 M
852.4 95 L
S
GR
GS
[0.75 0 0 0.75 0 -0.25] CT
0.873 GC
1 LJ
0.667 LW
N
1147.6 509 M
1147.6 95 L
S
GR
GS
[0.75 0 0 0.75 0 -0.25] CT
0.873 GC
1 LJ
0.667 LW
N
1442.8 509 M
1442.8 95 L
S
GR
GS
[0.75 0 0 0.75 0 -0.25] CT
0.873 GC
1 LJ
0.667 LW
N
1738 509 M
1738 95 L
S
GR
GS
[0.75 0 0 0.75 0 -0.25] CT
0.873 GC
1 LJ
0.667 LW
N
1738 509 M
262 509 L
S
GR
GS
[0.75 0 0 0.75 0 -0.25] CT
0.873 GC
1 LJ
0.667 LW
N
1738 457.25 M
262 457.25 L
S
GR
GS
[0.75 0 0 0.75 0 -0.25] CT
0.873 GC
1 LJ
0.667 LW
N
1738 405.5 M
262 405.5 L
S
GR
GS
[0.75 0 0 0.75 0 -0.25] CT
0.873 GC
1 LJ
0.667 LW
N
1738 353.75 M
262 353.75 L
S
GR
GS
[0.75 0 0 0.75 0 -0.25] CT
0.873 GC
1 LJ
0.667 LW
N
1738 302 M
262 302 L
S
GR
GS
[0.75 0 0 0.75 0 -0.25] CT
0.873 GC
1 LJ
0.667 LW
N
1738 250.25 M
262 250.25 L
S
GR
GS
[0.75 0 0 0.75 0 -0.25] CT
0.873 GC
1 LJ
0.667 LW
N
1738 198.5 M
262 198.5 L
S
GR
GS
[0.75 0 0 0.75 0 -0.25] CT
0.873 GC
1 LJ
0.667 LW
N
1738 146.75 M
262 146.75 L
S
GR
GS
[0.75 0 0 0.75 0 -0.25] CT
0.873 GC
1 LJ
0.667 LW
N
1738 95 M
262 95 L
S
GR
GS
[0.75 0 0 0.75 0 -0.25] CT
0.4 GC
2 setlinecap
1 LJ
0.667 LW
N
262 509 M
1738 509 L
S
GR
GS
[0.75 0 0 0.75 0 -0.25] CT
0.4 GC
2 setlinecap
1 LJ
0.667 LW
N
262 95 M
1738 95 L
S
GR
GS
[0.75 0 0 0.75 0 -0.25] CT
0.4 GC
2 setlinecap
1 LJ
0.667 LW
N
262 509 M
262 494.24 L
S
GR
GS
[0.75 0 0 0.75 0 -0.25] CT
0.4 GC
2 setlinecap
1 LJ
0.667 LW
N
557.2 509 M
557.2 494.24 L
S
GR
GS
[0.75 0 0 0.75 0 -0.25] CT
0.4 GC
2 setlinecap
1 LJ
0.667 LW
N
852.4 509 M
852.4 494.24 L
S
GR
GS
[0.75 0 0 0.75 0 -0.25] CT
0.4 GC
2 setlinecap
1 LJ
0.667 LW
N
1147.6 509 M
1147.6 494.24 L
S
GR
GS
[0.75 0 0 0.75 0 -0.25] CT
0.4 GC
2 setlinecap
1 LJ
0.667 LW
N
1442.8 509 M
1442.8 494.24 L
S
GR
GS
[0.75 0 0 0.75 0 -0.25] CT
0.4 GC
2 setlinecap
1 LJ
0.667 LW
N
1738 509 M
1738 494.24 L
S
GR
GS
[0.75 0 0 0.75 0 -0.25] CT
0.4 GC
2 setlinecap
1 LJ
0.667 LW
N
262 95 M
262 109.76 L
S
GR
GS
[0.75 0 0 0.75 0 -0.25] CT
0.4 GC
2 setlinecap
1 LJ
0.667 LW
N
557.2 95 M
557.2 109.76 L
S
GR
GS
[0.75 0 0 0.75 0 -0.25] CT
0.4 GC
2 setlinecap
1 LJ
0.667 LW
N
852.4 95 M
852.4 109.76 L
S
GR
GS
[0.75 0 0 0.75 0 -0.25] CT
0.4 GC
2 setlinecap
1 LJ
0.667 LW
N
1147.6 95 M
1147.6 109.76 L
S
GR
GS
[0.75 0 0 0.75 0 -0.25] CT
0.4 GC
2 setlinecap
1 LJ
0.667 LW
N
1442.8 95 M
1442.8 109.76 L
S
GR
GS
[0.75 0 0 0.75 0 -0.25] CT
0.4 GC
2 setlinecap
1 LJ
0.667 LW
N
1738 95 M
1738 109.76 L
S
GR
GS
[0.75 0 0 0.75 0 -0.25] CT
0.4 GC
2 setlinecap
1 LJ
0.667 LW
N
262 509 M
262 501.62 L
S
GR
GS
[0.75 0 0 0.75 0 -0.25] CT
0.4 GC
2 setlinecap
1 LJ
0.667 LW
N
350.864 509 M
350.864 501.62 L
S
GR
GS
[0.75 0 0 0.75 0 -0.25] CT
0.4 GC
2 setlinecap
1 LJ
0.667 LW
N
402.846 509 M
402.846 501.62 L
S
GR
GS
[0.75 0 0 0.75 0 -0.25] CT
0.4 GC
2 setlinecap
1 LJ
0.667 LW
N
439.728 509 M
439.728 501.62 L
S
GR
GS
[0.75 0 0 0.75 0 -0.25] CT
0.4 GC
2 setlinecap
1 LJ
0.667 LW
N
468.336 509 M
468.336 501.62 L
S
GR
GS
[0.75 0 0 0.75 0 -0.25] CT
0.4 GC
2 setlinecap
1 LJ
0.667 LW
N
491.71 509 M
491.71 501.62 L
S
GR
GS
[0.75 0 0 0.75 0 -0.25] CT
0.4 GC
2 setlinecap
1 LJ
0.667 LW
N
511.473 509 M
511.473 501.62 L
S
GR
GS
[0.75 0 0 0.75 0 -0.25] CT
0.4 GC
2 setlinecap
1 LJ
0.667 LW
N
528.592 509 M
528.592 501.62 L
S
GR
GS
[0.75 0 0 0.75 0 -0.25] CT
0.4 GC
2 setlinecap
1 LJ
0.667 LW
N
543.692 509 M
543.692 501.62 L
S
GR
GS
[0.75 0 0 0.75 0 -0.25] CT
0.4 GC
2 setlinecap
1 LJ
0.667 LW
N
557.2 509 M
557.2 501.62 L
S
GR
GS
[0.75 0 0 0.75 0 -0.25] CT
0.4 GC
2 setlinecap
1 LJ
0.667 LW
N
646.064 509 M
646.064 501.62 L
S
GR
GS
[0.75 0 0 0.75 0 -0.25] CT
0.4 GC
2 setlinecap
1 LJ
0.667 LW
N
698.046 509 M
698.046 501.62 L
S
GR
GS
[0.75 0 0 0.75 0 -0.25] CT
0.4 GC
2 setlinecap
1 LJ
0.667 LW
N
734.928 509 M
734.928 501.62 L
S
GR
GS
[0.75 0 0 0.75 0 -0.25] CT
0.4 GC
2 setlinecap
1 LJ
0.667 LW
N
763.536 509 M
763.536 501.62 L
S
GR
GS
[0.75 0 0 0.75 0 -0.25] CT
0.4 GC
2 setlinecap
1 LJ
0.667 LW
N
786.91 509 M
786.91 501.62 L
S
GR
GS
[0.75 0 0 0.75 0 -0.25] CT
0.4 GC
2 setlinecap
1 LJ
0.667 LW
N
806.673 509 M
806.673 501.62 L
S
GR
GS
[0.75 0 0 0.75 0 -0.25] CT
0.4 GC
2 setlinecap
1 LJ
0.667 LW
N
823.792 509 M
823.792 501.62 L
S
GR
GS
[0.75 0 0 0.75 0 -0.25] CT
0.4 GC
2 setlinecap
1 LJ
0.667 LW
N
838.892 509 M
838.892 501.62 L
S
GR
GS
[0.75 0 0 0.75 0 -0.25] CT
0.4 GC
2 setlinecap
1 LJ
0.667 LW
N
852.4 509 M
852.4 501.62 L
S
GR
GS
[0.75 0 0 0.75 0 -0.25] CT
0.4 GC
2 setlinecap
1 LJ
0.667 LW
N
941.264 509 M
941.264 501.62 L
S
GR
GS
[0.75 0 0 0.75 0 -0.25] CT
0.4 GC
2 setlinecap
1 LJ
0.667 LW
N
993.246 509 M
993.246 501.62 L
S
GR
GS
[0.75 0 0 0.75 0 -0.25] CT
0.4 GC
2 setlinecap
1 LJ
0.667 LW
N
1030.128 509 M
1030.128 501.62 L
S
GR
GS
[0.75 0 0 0.75 0 -0.25] CT
0.4 GC
2 setlinecap
1 LJ
0.667 LW
N
1058.736 509 M
1058.736 501.62 L
S
GR
GS
[0.75 0 0 0.75 0 -0.25] CT
0.4 GC
2 setlinecap
1 LJ
0.667 LW
N
1082.11 509 M
1082.11 501.62 L
S
GR
GS
[0.75 0 0 0.75 0 -0.25] CT
0.4 GC
2 setlinecap
1 LJ
0.667 LW
N
1101.873 509 M
1101.873 501.62 L
S
GR
GS
[0.75 0 0 0.75 0 -0.25] CT
0.4 GC
2 setlinecap
1 LJ
0.667 LW
N
1118.992 509 M
1118.992 501.62 L
S
GR
GS
[0.75 0 0 0.75 0 -0.25] CT
0.4 GC
2 setlinecap
1 LJ
0.667 LW
N
1134.092 509 M
1134.092 501.62 L
S
GR
GS
[0.75 0 0 0.75 0 -0.25] CT
0.4 GC
2 setlinecap
1 LJ
0.667 LW
N
1147.6 509 M
1147.6 501.62 L
S
GR
GS
[0.75 0 0 0.75 0 -0.25] CT
0.4 GC
2 setlinecap
1 LJ
0.667 LW
N
1236.464 509 M
1236.464 501.62 L
S
GR
GS
[0.75 0 0 0.75 0 -0.25] CT
0.4 GC
2 setlinecap
1 LJ
0.667 LW
N
1288.446 509 M
1288.446 501.62 L
S
GR
GS
[0.75 0 0 0.75 0 -0.25] CT
0.4 GC
2 setlinecap
1 LJ
0.667 LW
N
1325.328 509 M
1325.328 501.62 L
S
GR
GS
[0.75 0 0 0.75 0 -0.25] CT
0.4 GC
2 setlinecap
1 LJ
0.667 LW
N
1353.936 509 M
1353.936 501.62 L
S
GR
GS
[0.75 0 0 0.75 0 -0.25] CT
0.4 GC
2 setlinecap
1 LJ
0.667 LW
N
1377.31 509 M
1377.31 501.62 L
S
GR
GS
[0.75 0 0 0.75 0 -0.25] CT
0.4 GC
2 setlinecap
1 LJ
0.667 LW
N
1397.073 509 M
1397.073 501.62 L
S
GR
GS
[0.75 0 0 0.75 0 -0.25] CT
0.4 GC
2 setlinecap
1 LJ
0.667 LW
N
1414.192 509 M
1414.192 501.62 L
S
GR
GS
[0.75 0 0 0.75 0 -0.25] CT
0.4 GC
2 setlinecap
1 LJ
0.667 LW
N
1429.292 509 M
1429.292 501.62 L
S
GR
GS
[0.75 0 0 0.75 0 -0.25] CT
0.4 GC
2 setlinecap
1 LJ
0.667 LW
N
1442.8 509 M
1442.8 501.62 L
S
GR
GS
[0.75 0 0 0.75 0 -0.25] CT
0.4 GC
2 setlinecap
1 LJ
0.667 LW
N
1531.664 509 M
1531.664 501.62 L
S
GR
GS
[0.75 0 0 0.75 0 -0.25] CT
0.4 GC
2 setlinecap
1 LJ
0.667 LW
N
1583.646 509 M
1583.646 501.62 L
S
GR
GS
[0.75 0 0 0.75 0 -0.25] CT
0.4 GC
2 setlinecap
1 LJ
0.667 LW
N
1620.528 509 M
1620.528 501.62 L
S
GR
GS
[0.75 0 0 0.75 0 -0.25] CT
0.4 GC
2 setlinecap
1 LJ
0.667 LW
N
1649.136 509 M
1649.136 501.62 L
S
GR
GS
[0.75 0 0 0.75 0 -0.25] CT
0.4 GC
2 setlinecap
1 LJ
0.667 LW
N
1672.51 509 M
1672.51 501.62 L
S
GR
GS
[0.75 0 0 0.75 0 -0.25] CT
0.4 GC
2 setlinecap
1 LJ
0.667 LW
N
1692.273 509 M
1692.273 501.62 L
S
GR
GS
[0.75 0 0 0.75 0 -0.25] CT
0.4 GC
2 setlinecap
1 LJ
0.667 LW
N
1709.392 509 M
1709.392 501.62 L
S
GR
GS
[0.75 0 0 0.75 0 -0.25] CT
0.4 GC
2 setlinecap
1 LJ
0.667 LW
N
1724.492 509 M
1724.492 501.62 L
S
GR
GS
[0.75 0 0 0.75 0 -0.25] CT
0.4 GC
2 setlinecap
1 LJ
0.667 LW
N
1738 509 M
1738 501.62 L
S
GR
GS
[0.75 0 0 0.75 0 -0.25] CT
0.4 GC
2 setlinecap
1 LJ
0.667 LW
N
262 95 M
262 102.38 L
S
GR
GS
[0.75 0 0 0.75 0 -0.25] CT
0.4 GC
2 setlinecap
1 LJ
0.667 LW
N
350.864 95 M
350.864 102.38 L
S
GR
GS
[0.75 0 0 0.75 0 -0.25] CT
0.4 GC
2 setlinecap
1 LJ
0.667 LW
N
402.846 95 M
402.846 102.38 L
S
GR
GS
[0.75 0 0 0.75 0 -0.25] CT
0.4 GC
2 setlinecap
1 LJ
0.667 LW
N
439.728 95 M
439.728 102.38 L
S
GR
GS
[0.75 0 0 0.75 0 -0.25] CT
0.4 GC
2 setlinecap
1 LJ
0.667 LW
N
468.336 95 M
468.336 102.38 L
S
GR
GS
[0.75 0 0 0.75 0 -0.25] CT
0.4 GC
2 setlinecap
1 LJ
0.667 LW
N
491.71 95 M
491.71 102.38 L
S
GR
GS
[0.75 0 0 0.75 0 -0.25] CT
0.4 GC
2 setlinecap
1 LJ
0.667 LW
N
511.473 95 M
511.473 102.38 L
S
GR
GS
[0.75 0 0 0.75 0 -0.25] CT
0.4 GC
2 setlinecap
1 LJ
0.667 LW
N
528.592 95 M
528.592 102.38 L
S
GR
GS
[0.75 0 0 0.75 0 -0.25] CT
0.4 GC
2 setlinecap
1 LJ
0.667 LW
N
543.692 95 M
543.692 102.38 L
S
GR
GS
[0.75 0 0 0.75 0 -0.25] CT
0.4 GC
2 setlinecap
1 LJ
0.667 LW
N
557.2 95 M
557.2 102.38 L
S
GR
GS
[0.75 0 0 0.75 0 -0.25] CT
0.4 GC
2 setlinecap
1 LJ
0.667 LW
N
646.064 95 M
646.064 102.38 L
S
GR
GS
[0.75 0 0 0.75 0 -0.25] CT
0.4 GC
2 setlinecap
1 LJ
0.667 LW
N
698.046 95 M
698.046 102.38 L
S
GR
GS
[0.75 0 0 0.75 0 -0.25] CT
0.4 GC
2 setlinecap
1 LJ
0.667 LW
N
734.928 95 M
734.928 102.38 L
S
GR
GS
[0.75 0 0 0.75 0 -0.25] CT
0.4 GC
2 setlinecap
1 LJ
0.667 LW
N
763.536 95 M
763.536 102.38 L
S
GR
GS
[0.75 0 0 0.75 0 -0.25] CT
0.4 GC
2 setlinecap
1 LJ
0.667 LW
N
786.91 95 M
786.91 102.38 L
S
GR
GS
[0.75 0 0 0.75 0 -0.25] CT
0.4 GC
2 setlinecap
1 LJ
0.667 LW
N
806.673 95 M
806.673 102.38 L
S
GR
GS
[0.75 0 0 0.75 0 -0.25] CT
0.4 GC
2 setlinecap
1 LJ
0.667 LW
N
823.792 95 M
823.792 102.38 L
S
GR
GS
[0.75 0 0 0.75 0 -0.25] CT
0.4 GC
2 setlinecap
1 LJ
0.667 LW
N
838.892 95 M
838.892 102.38 L
S
GR
GS
[0.75 0 0 0.75 0 -0.25] CT
0.4 GC
2 setlinecap
1 LJ
0.667 LW
N
852.4 95 M
852.4 102.38 L
S
GR
GS
[0.75 0 0 0.75 0 -0.25] CT
0.4 GC
2 setlinecap
1 LJ
0.667 LW
N
941.264 95 M
941.264 102.38 L
S
GR
GS
[0.75 0 0 0.75 0 -0.25] CT
0.4 GC
2 setlinecap
1 LJ
0.667 LW
N
993.246 95 M
993.246 102.38 L
S
GR
GS
[0.75 0 0 0.75 0 -0.25] CT
0.4 GC
2 setlinecap
1 LJ
0.667 LW
N
1030.128 95 M
1030.128 102.38 L
S
GR
GS
[0.75 0 0 0.75 0 -0.25] CT
0.4 GC
2 setlinecap
1 LJ
0.667 LW
N
1058.736 95 M
1058.736 102.38 L
S
GR
GS
[0.75 0 0 0.75 0 -0.25] CT
0.4 GC
2 setlinecap
1 LJ
0.667 LW
N
1082.11 95 M
1082.11 102.38 L
S
GR
GS
[0.75 0 0 0.75 0 -0.25] CT
0.4 GC
2 setlinecap
1 LJ
0.667 LW
N
1101.873 95 M
1101.873 102.38 L
S
GR
GS
[0.75 0 0 0.75 0 -0.25] CT
0.4 GC
2 setlinecap
1 LJ
0.667 LW
N
1118.992 95 M
1118.992 102.38 L
S
GR
GS
[0.75 0 0 0.75 0 -0.25] CT
0.4 GC
2 setlinecap
1 LJ
0.667 LW
N
1134.092 95 M
1134.092 102.38 L
S
GR
GS
[0.75 0 0 0.75 0 -0.25] CT
0.4 GC
2 setlinecap
1 LJ
0.667 LW
N
1147.6 95 M
1147.6 102.38 L
S
GR
GS
[0.75 0 0 0.75 0 -0.25] CT
0.4 GC
2 setlinecap
1 LJ
0.667 LW
N
1236.464 95 M
1236.464 102.38 L
S
GR
GS
[0.75 0 0 0.75 0 -0.25] CT
0.4 GC
2 setlinecap
1 LJ
0.667 LW
N
1288.446 95 M
1288.446 102.38 L
S
GR
GS
[0.75 0 0 0.75 0 -0.25] CT
0.4 GC
2 setlinecap
1 LJ
0.667 LW
N
1325.328 95 M
1325.328 102.38 L
S
GR
GS
[0.75 0 0 0.75 0 -0.25] CT
0.4 GC
2 setlinecap
1 LJ
0.667 LW
N
1353.936 95 M
1353.936 102.38 L
S
GR
GS
[0.75 0 0 0.75 0 -0.25] CT
0.4 GC
2 setlinecap
1 LJ
0.667 LW
N
1377.31 95 M
1377.31 102.38 L
S
GR
GS
[0.75 0 0 0.75 0 -0.25] CT
0.4 GC
2 setlinecap
1 LJ
0.667 LW
N
1397.073 95 M
1397.073 102.38 L
S
GR
GS
[0.75 0 0 0.75 0 -0.25] CT
0.4 GC
2 setlinecap
1 LJ
0.667 LW
N
1414.192 95 M
1414.192 102.38 L
S
GR
GS
[0.75 0 0 0.75 0 -0.25] CT
0.4 GC
2 setlinecap
1 LJ
0.667 LW
N
1429.292 95 M
1429.292 102.38 L
S
GR
GS
[0.75 0 0 0.75 0 -0.25] CT
0.4 GC
2 setlinecap
1 LJ
0.667 LW
N
1442.8 95 M
1442.8 102.38 L
S
GR
GS
[0.75 0 0 0.75 0 -0.25] CT
0.4 GC
2 setlinecap
1 LJ
0.667 LW
N
1531.664 95 M
1531.664 102.38 L
S
GR
GS
[0.75 0 0 0.75 0 -0.25] CT
0.4 GC
2 setlinecap
1 LJ
0.667 LW
N
1583.646 95 M
1583.646 102.38 L
S
GR
GS
[0.75 0 0 0.75 0 -0.25] CT
0.4 GC
2 setlinecap
1 LJ
0.667 LW
N
1620.528 95 M
1620.528 102.38 L
S
GR
GS
[0.75 0 0 0.75 0 -0.25] CT
0.4 GC
2 setlinecap
1 LJ
0.667 LW
N
1649.136 95 M
1649.136 102.38 L
S
GR
GS
[0.75 0 0 0.75 0 -0.25] CT
0.4 GC
2 setlinecap
1 LJ
0.667 LW
N
1672.51 95 M
1672.51 102.38 L
S
GR
GS
[0.75 0 0 0.75 0 -0.25] CT
0.4 GC
2 setlinecap
1 LJ
0.667 LW
N
1692.273 95 M
1692.273 102.38 L
S
GR
GS
[0.75 0 0 0.75 0 -0.25] CT
0.4 GC
2 setlinecap
1 LJ
0.667 LW
N
1709.392 95 M
1709.392 102.38 L
S
GR
GS
[0.75 0 0 0.75 0 -0.25] CT
0.4 GC
2 setlinecap
1 LJ
0.667 LW
N
1724.492 95 M
1724.492 102.38 L
S
GR
GS
[0.75 0 0 0.75 0 -0.25] CT
0.4 GC
2 setlinecap
1 LJ
0.667 LW
N
1738 95 M
1738 102.38 L
S
GR
GS
[0.75 0 0 0.75 0 -0.25] CT
0.4 GC
2 setlinecap
1 LJ
0.667 LW
N
262 509 M
262 95 L
S
GR
GS
[0.75 0 0 0.75 0 -0.25] CT
0.4 GC
2 setlinecap
1 LJ
0.667 LW
N
1738 509 M
1738 95 L
S
GR
GS
[0.75 0 0 0.75 0 -0.25] CT
0.4 GC
2 setlinecap
1 LJ
0.667 LW
N
262 509 M
276.76 509 L
S
GR
GS
[0.75 0 0 0.75 0 -0.25] CT
0.4 GC
2 setlinecap
1 LJ
0.667 LW
N
262 457.25 M
276.76 457.25 L
S
GR
GS
[0.75 0 0 0.75 0 -0.25] CT
0.4 GC
2 setlinecap
1 LJ
0.667 LW
N
262 405.5 M
276.76 405.5 L
S
GR
GS
[0.75 0 0 0.75 0 -0.25] CT
0.4 GC
2 setlinecap
1 LJ
0.667 LW
N
262 353.75 M
276.76 353.75 L
S
GR
GS
[0.75 0 0 0.75 0 -0.25] CT
0.4 GC
2 setlinecap
1 LJ
0.667 LW
N
262 302 M
276.76 302 L
S
GR
GS
[0.75 0 0 0.75 0 -0.25] CT
0.4 GC
2 setlinecap
1 LJ
0.667 LW
N
262 250.25 M
276.76 250.25 L
S
GR
GS
[0.75 0 0 0.75 0 -0.25] CT
0.4 GC
2 setlinecap
1 LJ
0.667 LW
N
262 198.5 M
276.76 198.5 L
S
GR
GS
[0.75 0 0 0.75 0 -0.25] CT
0.4 GC
2 setlinecap
1 LJ
0.667 LW
N
262 146.75 M
276.76 146.75 L
S
GR
GS
[0.75 0 0 0.75 0 -0.25] CT
0.4 GC
2 setlinecap
1 LJ
0.667 LW
N
262 95 M
276.76 95 L
S
GR
GS
[0.75 0 0 0.75 0 -0.25] CT
0.4 GC
2 setlinecap
1 LJ
0.667 LW
N
1738 509 M
1723.24 509 L
S
GR
GS
[0.75 0 0 0.75 0 -0.25] CT
0.4 GC
2 setlinecap
1 LJ
0.667 LW
N
1738 457.25 M
1723.24 457.25 L
S
GR
GS
[0.75 0 0 0.75 0 -0.25] CT
0.4 GC
2 setlinecap
1 LJ
0.667 LW
N
1738 405.5 M
1723.24 405.5 L
S
GR
GS
[0.75 0 0 0.75 0 -0.25] CT
0.4 GC
2 setlinecap
1 LJ
0.667 LW
N
1738 353.75 M
1723.24 353.75 L
S
GR
GS
[0.75 0 0 0.75 0 -0.25] CT
0.4 GC
2 setlinecap
1 LJ
0.667 LW
N
1738 302 M
1723.24 302 L
S
GR
GS
[0.75 0 0 0.75 0 -0.25] CT
0.4 GC
2 setlinecap
1 LJ
0.667 LW
N
1738 250.25 M
1723.24 250.25 L
S
GR
GS
[0.75 0 0 0.75 0 -0.25] CT
0.4 GC
2 setlinecap
1 LJ
0.667 LW
N
1738 198.5 M
1723.24 198.5 L
S
GR
GS
[0.75 0 0 0.75 0 -0.25] CT
0.4 GC
2 setlinecap
1 LJ
0.667 LW
N
1738 146.75 M
1723.24 146.75 L
S
GR
GS
[0.75 0 0 0.75 0 -0.25] CT
0.4 GC
2 setlinecap
1 LJ
0.667 LW
N
1738 95 M
1723.24 95 L
S
GR
GS
[0.75 0 0 0.75 191.3 381.5] CT
0.4 GC
/Helvetica 21.333 F
GS
[1 0 0 1 0 0] CT
-30 7 moveto 
1 -1 scale
(-40) t 
GR
GR
GS
[0.75 0 0 0.75 191.3 342.6875] CT
0.4 GC
/Helvetica 21.333 F
GS
[1 0 0 1 0 0] CT
-30 7 moveto 
1 -1 scale
(-35) t 
GR
GR
GS
[0.75 0 0 0.75 191.3 303.875] CT
0.4 GC
/Helvetica 21.333 F
GS
[1 0 0 1 0 0] CT
-30 7 moveto 
1 -1 scale
(-30) t 
GR
GR
GS
[0.75 0 0 0.75 191.3 265.0625] CT
0.4 GC
/Helvetica 21.333 F
GS
[1 0 0 1 0 0] CT
-30 7 moveto 
1 -1 scale
(-25) t 
GR
GR
GS
[0.75 0 0 0.75 191.3 226.25] CT
0.4 GC
/Helvetica 21.333 F
GS
[1 0 0 1 0 0] CT
-30 7 moveto 
1 -1 scale
(-20) t 
GR
GR
GS
[0.75 0 0 0.75 191.3 187.4375] CT
0.4 GC
/Helvetica 21.333 F
GS
[1 0 0 1 0 0] CT
-30 7 moveto 
1 -1 scale
(-15) t 
GR
GR
GS
[0.75 0 0 0.75 191.3 148.625] CT
0.4 GC
/Helvetica 21.333 F
GS
[1 0 0 1 0 0] CT
-30 7 moveto 
1 -1 scale
(-10) t 
GR
GR
GS
[0.75 0 0 0.75 191.3 109.8125] CT
0.4 GC
/Helvetica 21.333 F
GS
[1 0 0 1 0 0] CT
-18 7 moveto 
1 -1 scale
(-5) t 
GR
GR
GS
[0.75 0 0 0.75 191.3 71] CT
0.4 GC
/Helvetica 21.333 F
GS
[1 0 0 1 0 0] CT
-12 7 moveto 
1 -1 scale
(0) t 
GR
GR
GS
[0 -0.75 0.75 0 165.8 226.24986] CT
/Helvetica 23.467 F
GS
[1 0 0 1 0 0] CT
-81 -6 moveto 
1 -1 scale
(Magnitude \(dB\)) t 
GR
GR
GS
[0.75 0 0 0.75 0 -0.25] CT
0 0.447 0.741 RC
1 LJ
2.667 LW
N
261.824 95.044 M
264.504 95.046 L
284.423 95.062 L
304.341 95.085 L
324.26 95.116 L
344.178 95.158 L
364.096 95.215 L
384.015 95.294 L
403.933 95.4 L
423.852 95.545 L
443.77 95.742 L
463.688 96.01 L
483.607 96.372 L
503.525 96.862 L
523.443 97.522 L
543.362 98.406 L
563.28 99.586 L
583.199 101.148 L
603.117 103.194 L
623.035 105.844 L
642.954 109.225 L
662.872 113.463 L
682.791 118.667 L
702.709 124.916 L
722.628 132.245 L
742.546 140.637 L
762.464 150.027 L
782.383 160.315 L
802.301 171.379 L
822.219 183.09 L
842.138 195.324 L
862.056 207.971 L
881.975 220.938 L
901.893 234.146 L
921.811 247.533 L
941.73 261.049 L
961.648 274.654 L
981.567 288.314 L
1001.485 302 L
1021.403 315.686 L
1041.322 329.346 L
1061.24 342.951 L
1081.159 356.467 L
1101.077 369.854 L
1120.995 383.062 L
1140.914 396.029 L
1160.832 408.676 L
1180.751 420.91 L
1200.669 432.621 L
1220.587 443.685 L
1240.506 453.973 L
1260.424 463.363 L
1280.343 471.755 L
1300.261 479.084 L
1320.179 485.333 L
1340.098 490.537 L
1360.016 494.775 L
1379.935 498.156 L
1399.853 500.806 L
1419.771 502.852 L
1439.69 504.414 L
1459.608 505.594 L
1479.527 506.478 L
1499.445 507.138 L
1519.363 507.628 L
1539.282 507.99 L
1559.2 508.258 L
1579.119 508.455 L
1599.037 508.6 L
1618.955 508.706 L
1638.874 508.785 L
1658.792 508.842 L
1678.711 508.884 L
1698.629 508.915 L
1718.547 508.938 L
1738.176 508.954 L
S
GR
GS
[0.75 0 0 0.75 0 -0.25] CT
1 GC
N
262 889 M
1738 889 L
1738 521 L
262 521 L
cp
f
GR
GS
[0.75 0 0 0.75 0 -0.25] CT
0.849 GC
[1 3] 0 setdash
2 LJ
0.667 LW
N
350.864 889 M
350.864 521 L
S
GR
GS
[0.75 0 0 0.75 0 -0.25] CT
0.849 GC
[1 3] 0 setdash
2 LJ
0.667 LW
N
402.846 889 M
402.846 521 L
S
GR
GS
[0.75 0 0 0.75 0 -0.25] CT
0.849 GC
[1 3] 0 setdash
2 LJ
0.667 LW
N
439.728 889 M
439.728 521 L
S
GR
GS
[0.75 0 0 0.75 0 -0.25] CT
0.849 GC
[1 3] 0 setdash
2 LJ
0.667 LW
N
468.336 889 M
468.336 521 L
S
GR
GS
[0.75 0 0 0.75 0 -0.25] CT
0.849 GC
[1 3] 0 setdash
2 LJ
0.667 LW
N
491.71 889 M
491.71 521 L
S
GR
GS
[0.75 0 0 0.75 0 -0.25] CT
0.849 GC
[1 3] 0 setdash
2 LJ
0.667 LW
N
511.473 889 M
511.473 521 L
S
GR
GS
[0.75 0 0 0.75 0 -0.25] CT
0.849 GC
[1 3] 0 setdash
2 LJ
0.667 LW
N
528.592 889 M
528.592 521 L
S
GR
GS
[0.75 0 0 0.75 0 -0.25] CT
0.849 GC
[1 3] 0 setdash
2 LJ
0.667 LW
N
543.692 889 M
543.692 521 L
S
GR
GS
[0.75 0 0 0.75 0 -0.25] CT
0.849 GC
[1 3] 0 setdash
2 LJ
0.667 LW
N
646.064 889 M
646.064 521 L
S
GR
GS
[0.75 0 0 0.75 0 -0.25] CT
0.849 GC
[1 3] 0 setdash
2 LJ
0.667 LW
N
698.046 889 M
698.046 521 L
S
GR
GS
[0.75 0 0 0.75 0 -0.25] CT
0.849 GC
[1 3] 0 setdash
2 LJ
0.667 LW
N
734.928 889 M
734.928 521 L
S
GR
GS
[0.75 0 0 0.75 0 -0.25] CT
0.849 GC
[1 3] 0 setdash
2 LJ
0.667 LW
N
763.536 889 M
763.536 521 L
S
GR
GS
[0.75 0 0 0.75 0 -0.25] CT
0.849 GC
[1 3] 0 setdash
2 LJ
0.667 LW
N
786.91 889 M
786.91 521 L
S
GR
GS
[0.75 0 0 0.75 0 -0.25] CT
0.849 GC
[1 3] 0 setdash
2 LJ
0.667 LW
N
806.673 889 M
806.673 521 L
S
GR
GS
[0.75 0 0 0.75 0 -0.25] CT
0.849 GC
[1 3] 0 setdash
2 LJ
0.667 LW
N
823.792 889 M
823.792 521 L
S
GR
GS
[0.75 0 0 0.75 0 -0.25] CT
0.849 GC
[1 3] 0 setdash
2 LJ
0.667 LW
N
838.892 889 M
838.892 521 L
S
GR
GS
[0.75 0 0 0.75 0 -0.25] CT
0.849 GC
[1 3] 0 setdash
2 LJ
0.667 LW
N
941.264 889 M
941.264 521 L
S
GR
GS
[0.75 0 0 0.75 0 -0.25] CT
0.849 GC
[1 3] 0 setdash
2 LJ
0.667 LW
N
993.246 889 M
993.246 521 L
S
GR
GS
[0.75 0 0 0.75 0 -0.25] CT
0.849 GC
[1 3] 0 setdash
2 LJ
0.667 LW
N
1030.128 889 M
1030.128 521 L
S
GR
GS
[0.75 0 0 0.75 0 -0.25] CT
0.849 GC
[1 3] 0 setdash
2 LJ
0.667 LW
N
1058.736 889 M
1058.736 521 L
S
GR
GS
[0.75 0 0 0.75 0 -0.25] CT
0.849 GC
[1 3] 0 setdash
2 LJ
0.667 LW
N
1082.11 889 M
1082.11 521 L
S
GR
GS
[0.75 0 0 0.75 0 -0.25] CT
0.849 GC
[1 3] 0 setdash
2 LJ
0.667 LW
N
1101.873 889 M
1101.873 521 L
S
GR
GS
[0.75 0 0 0.75 0 -0.25] CT
0.849 GC
[1 3] 0 setdash
2 LJ
0.667 LW
N
1118.992 889 M
1118.992 521 L
S
GR
GS
[0.75 0 0 0.75 0 -0.25] CT
0.849 GC
[1 3] 0 setdash
2 LJ
0.667 LW
N
1134.092 889 M
1134.092 521 L
S
GR
GS
[0.75 0 0 0.75 0 -0.25] CT
0.849 GC
[1 3] 0 setdash
2 LJ
0.667 LW
N
1236.464 889 M
1236.464 521 L
S
GR
GS
[0.75 0 0 0.75 0 -0.25] CT
0.849 GC
[1 3] 0 setdash
2 LJ
0.667 LW
N
1288.446 889 M
1288.446 521 L
S
GR
GS
[0.75 0 0 0.75 0 -0.25] CT
0.849 GC
[1 3] 0 setdash
2 LJ
0.667 LW
N
1325.328 889 M
1325.328 521 L
S
GR
GS
[0.75 0 0 0.75 0 -0.25] CT
0.849 GC
[1 3] 0 setdash
2 LJ
0.667 LW
N
1353.936 889 M
1353.936 521 L
S
GR
GS
[0.75 0 0 0.75 0 -0.25] CT
0.849 GC
[1 3] 0 setdash
2 LJ
0.667 LW
N
1377.31 889 M
1377.31 521 L
S
GR
GS
[0.75 0 0 0.75 0 -0.25] CT
0.849 GC
[1 3] 0 setdash
2 LJ
0.667 LW
N
1397.073 889 M
1397.073 521 L
S
GR
GS
[0.75 0 0 0.75 0 -0.25] CT
0.849 GC
[1 3] 0 setdash
2 LJ
0.667 LW
N
1414.192 889 M
1414.192 521 L
S
GR
GS
[0.75 0 0 0.75 0 -0.25] CT
0.849 GC
[1 3] 0 setdash
2 LJ
0.667 LW
N
1429.292 889 M
1429.292 521 L
S
GR
GS
[0.75 0 0 0.75 0 -0.25] CT
0.849 GC
[1 3] 0 setdash
2 LJ
0.667 LW
N
1531.664 889 M
1531.664 521 L
S
GR
GS
[0.75 0 0 0.75 0 -0.25] CT
0.849 GC
[1 3] 0 setdash
2 LJ
0.667 LW
N
1583.646 889 M
1583.646 521 L
S
GR
GS
[0.75 0 0 0.75 0 -0.25] CT
0.849 GC
[1 3] 0 setdash
2 LJ
0.667 LW
N
1620.528 889 M
1620.528 521 L
S
GR
GS
[0.75 0 0 0.75 0 -0.25] CT
0.849 GC
[1 3] 0 setdash
2 LJ
0.667 LW
N
1649.136 889 M
1649.136 521 L
S
GR
GS
[0.75 0 0 0.75 0 -0.25] CT
0.849 GC
[1 3] 0 setdash
2 LJ
0.667 LW
N
1672.51 889 M
1672.51 521 L
S
GR
GS
[0.75 0 0 0.75 0 -0.25] CT
0.849 GC
[1 3] 0 setdash
2 LJ
0.667 LW
N
1692.273 889 M
1692.273 521 L
S
GR
GS
[0.75 0 0 0.75 0 -0.25] CT
0.849 GC
[1 3] 0 setdash
2 LJ
0.667 LW
N
1709.392 889 M
1709.392 521 L
S
GR
GS
[0.75 0 0 0.75 0 -0.25] CT
0.849 GC
[1 3] 0 setdash
2 LJ
0.667 LW
N
1724.492 889 M
1724.492 521 L
S
GR
GS
[0.75 0 0 0.75 0 -0.25] CT
0.873 GC
1 LJ
0.667 LW
N
262 889 M
262 521 L
S
GR
GS
[0.75 0 0 0.75 0 -0.25] CT
0.873 GC
1 LJ
0.667 LW
N
557.2 889 M
557.2 521 L
S
GR
GS
[0.75 0 0 0.75 0 -0.25] CT
0.873 GC
1 LJ
0.667 LW
N
852.4 889 M
852.4 521 L
S
GR
GS
[0.75 0 0 0.75 0 -0.25] CT
0.873 GC
1 LJ
0.667 LW
N
1147.6 889 M
1147.6 521 L
S
GR
GS
[0.75 0 0 0.75 0 -0.25] CT
0.873 GC
1 LJ
0.667 LW
N
1442.8 889 M
1442.8 521 L
S
GR
GS
[0.75 0 0 0.75 0 -0.25] CT
0.873 GC
1 LJ
0.667 LW
N
1738 889 M
1738 521 L
S
GR
GS
[0.75 0 0 0.75 0 -0.25] CT
0.873 GC
1 LJ
0.667 LW
N
1738 885.392 M
262 885.392 L
S
GR
GS
[0.75 0 0 0.75 0 -0.25] CT
0.873 GC
1 LJ
0.667 LW
N
1738 765.131 M
262 765.131 L
S
GR
GS
[0.75 0 0 0.75 0 -0.25] CT
0.873 GC
1 LJ
0.667 LW
N
1738 644.869 M
262 644.869 L
S
GR
GS
[0.75 0 0 0.75 0 -0.25] CT
0.873 GC
1 LJ
0.667 LW
N
1738 524.608 M
262 524.608 L
S
GR
GS
[0.75 0 0 0.75 0 -0.25] CT
0.4 GC
2 setlinecap
1 LJ
0.667 LW
N
262 889 M
1738 889 L
S
GR
GS
[0.75 0 0 0.75 0 -0.25] CT
0.4 GC
2 setlinecap
1 LJ
0.667 LW
N
262 521 M
1738 521 L
S
GR
GS
[0.75 0 0 0.75 0 -0.25] CT
0.4 GC
2 setlinecap
1 LJ
0.667 LW
N
262 889 M
262 874.24 L
S
GR
GS
[0.75 0 0 0.75 0 -0.25] CT
0.4 GC
2 setlinecap
1 LJ
0.667 LW
N
557.2 889 M
557.2 874.24 L
S
GR
GS
[0.75 0 0 0.75 0 -0.25] CT
0.4 GC
2 setlinecap
1 LJ
0.667 LW
N
852.4 889 M
852.4 874.24 L
S
GR
GS
[0.75 0 0 0.75 0 -0.25] CT
0.4 GC
2 setlinecap
1 LJ
0.667 LW
N
1147.6 889 M
1147.6 874.24 L
S
GR
GS
[0.75 0 0 0.75 0 -0.25] CT
0.4 GC
2 setlinecap
1 LJ
0.667 LW
N
1442.8 889 M
1442.8 874.24 L
S
GR
GS
[0.75 0 0 0.75 0 -0.25] CT
0.4 GC
2 setlinecap
1 LJ
0.667 LW
N
1738 889 M
1738 874.24 L
S
GR
GS
[0.75 0 0 0.75 0 -0.25] CT
0.4 GC
2 setlinecap
1 LJ
0.667 LW
N
262 521 M
262 535.76 L
S
GR
GS
[0.75 0 0 0.75 0 -0.25] CT
0.4 GC
2 setlinecap
1 LJ
0.667 LW
N
557.2 521 M
557.2 535.76 L
S
GR
GS
[0.75 0 0 0.75 0 -0.25] CT
0.4 GC
2 setlinecap
1 LJ
0.667 LW
N
852.4 521 M
852.4 535.76 L
S
GR
GS
[0.75 0 0 0.75 0 -0.25] CT
0.4 GC
2 setlinecap
1 LJ
0.667 LW
N
1147.6 521 M
1147.6 535.76 L
S
GR
GS
[0.75 0 0 0.75 0 -0.25] CT
0.4 GC
2 setlinecap
1 LJ
0.667 LW
N
1442.8 521 M
1442.8 535.76 L
S
GR
GS
[0.75 0 0 0.75 0 -0.25] CT
0.4 GC
2 setlinecap
1 LJ
0.667 LW
N
1738 521 M
1738 535.76 L
S
GR
GS
[0.75 0 0 0.75 0 -0.25] CT
0.4 GC
2 setlinecap
1 LJ
0.667 LW
N
262 889 M
262 881.62 L
S
GR
GS
[0.75 0 0 0.75 0 -0.25] CT
0.4 GC
2 setlinecap
1 LJ
0.667 LW
N
350.864 889 M
350.864 881.62 L
S
GR
GS
[0.75 0 0 0.75 0 -0.25] CT
0.4 GC
2 setlinecap
1 LJ
0.667 LW
N
402.846 889 M
402.846 881.62 L
S
GR
GS
[0.75 0 0 0.75 0 -0.25] CT
0.4 GC
2 setlinecap
1 LJ
0.667 LW
N
439.728 889 M
439.728 881.62 L
S
GR
GS
[0.75 0 0 0.75 0 -0.25] CT
0.4 GC
2 setlinecap
1 LJ
0.667 LW
N
468.336 889 M
468.336 881.62 L
S
GR
GS
[0.75 0 0 0.75 0 -0.25] CT
0.4 GC
2 setlinecap
1 LJ
0.667 LW
N
491.71 889 M
491.71 881.62 L
S
GR
GS
[0.75 0 0 0.75 0 -0.25] CT
0.4 GC
2 setlinecap
1 LJ
0.667 LW
N
511.473 889 M
511.473 881.62 L
S
GR
GS
[0.75 0 0 0.75 0 -0.25] CT
0.4 GC
2 setlinecap
1 LJ
0.667 LW
N
528.592 889 M
528.592 881.62 L
S
GR
GS
[0.75 0 0 0.75 0 -0.25] CT
0.4 GC
2 setlinecap
1 LJ
0.667 LW
N
543.692 889 M
543.692 881.62 L
S
GR
GS
[0.75 0 0 0.75 0 -0.25] CT
0.4 GC
2 setlinecap
1 LJ
0.667 LW
N
557.2 889 M
557.2 881.62 L
S
GR
GS
[0.75 0 0 0.75 0 -0.25] CT
0.4 GC
2 setlinecap
1 LJ
0.667 LW
N
646.064 889 M
646.064 881.62 L
S
GR
GS
[0.75 0 0 0.75 0 -0.25] CT
0.4 GC
2 setlinecap
1 LJ
0.667 LW
N
698.046 889 M
698.046 881.62 L
S
GR
GS
[0.75 0 0 0.75 0 -0.25] CT
0.4 GC
2 setlinecap
1 LJ
0.667 LW
N
734.928 889 M
734.928 881.62 L
S
GR
GS
[0.75 0 0 0.75 0 -0.25] CT
0.4 GC
2 setlinecap
1 LJ
0.667 LW
N
763.536 889 M
763.536 881.62 L
S
GR
GS
[0.75 0 0 0.75 0 -0.25] CT
0.4 GC
2 setlinecap
1 LJ
0.667 LW
N
786.91 889 M
786.91 881.62 L
S
GR
GS
[0.75 0 0 0.75 0 -0.25] CT
0.4 GC
2 setlinecap
1 LJ
0.667 LW
N
806.673 889 M
806.673 881.62 L
S
GR
GS
[0.75 0 0 0.75 0 -0.25] CT
0.4 GC
2 setlinecap
1 LJ
0.667 LW
N
823.792 889 M
823.792 881.62 L
S
GR
GS
[0.75 0 0 0.75 0 -0.25] CT
0.4 GC
2 setlinecap
1 LJ
0.667 LW
N
838.892 889 M
838.892 881.62 L
S
GR
GS
[0.75 0 0 0.75 0 -0.25] CT
0.4 GC
2 setlinecap
1 LJ
0.667 LW
N
852.4 889 M
852.4 881.62 L
S
GR
GS
[0.75 0 0 0.75 0 -0.25] CT
0.4 GC
2 setlinecap
1 LJ
0.667 LW
N
941.264 889 M
941.264 881.62 L
S
GR
GS
[0.75 0 0 0.75 0 -0.25] CT
0.4 GC
2 setlinecap
1 LJ
0.667 LW
N
993.246 889 M
993.246 881.62 L
S
GR
GS
[0.75 0 0 0.75 0 -0.25] CT
0.4 GC
2 setlinecap
1 LJ
0.667 LW
N
1030.128 889 M
1030.128 881.62 L
S
GR
GS
[0.75 0 0 0.75 0 -0.25] CT
0.4 GC
2 setlinecap
1 LJ
0.667 LW
N
1058.736 889 M
1058.736 881.62 L
S
GR
GS
[0.75 0 0 0.75 0 -0.25] CT
0.4 GC
2 setlinecap
1 LJ
0.667 LW
N
1082.11 889 M
1082.11 881.62 L
S
GR
GS
[0.75 0 0 0.75 0 -0.25] CT
0.4 GC
2 setlinecap
1 LJ
0.667 LW
N
1101.873 889 M
1101.873 881.62 L
S
GR
GS
[0.75 0 0 0.75 0 -0.25] CT
0.4 GC
2 setlinecap
1 LJ
0.667 LW
N
1118.992 889 M
1118.992 881.62 L
S
GR
GS
[0.75 0 0 0.75 0 -0.25] CT
0.4 GC
2 setlinecap
1 LJ
0.667 LW
N
1134.092 889 M
1134.092 881.62 L
S
GR
GS
[0.75 0 0 0.75 0 -0.25] CT
0.4 GC
2 setlinecap
1 LJ
0.667 LW
N
1147.6 889 M
1147.6 881.62 L
S
GR
GS
[0.75 0 0 0.75 0 -0.25] CT
0.4 GC
2 setlinecap
1 LJ
0.667 LW
N
1236.464 889 M
1236.464 881.62 L
S
GR
GS
[0.75 0 0 0.75 0 -0.25] CT
0.4 GC
2 setlinecap
1 LJ
0.667 LW
N
1288.446 889 M
1288.446 881.62 L
S
GR
GS
[0.75 0 0 0.75 0 -0.25] CT
0.4 GC
2 setlinecap
1 LJ
0.667 LW
N
1325.328 889 M
1325.328 881.62 L
S
GR
GS
[0.75 0 0 0.75 0 -0.25] CT
0.4 GC
2 setlinecap
1 LJ
0.667 LW
N
1353.936 889 M
1353.936 881.62 L
S
GR
GS
[0.75 0 0 0.75 0 -0.25] CT
0.4 GC
2 setlinecap
1 LJ
0.667 LW
N
1377.31 889 M
1377.31 881.62 L
S
GR
GS
[0.75 0 0 0.75 0 -0.25] CT
0.4 GC
2 setlinecap
1 LJ
0.667 LW
N
1397.073 889 M
1397.073 881.62 L
S
GR
GS
[0.75 0 0 0.75 0 -0.25] CT
0.4 GC
2 setlinecap
1 LJ
0.667 LW
N
1414.192 889 M
1414.192 881.62 L
S
GR
GS
[0.75 0 0 0.75 0 -0.25] CT
0.4 GC
2 setlinecap
1 LJ
0.667 LW
N
1429.292 889 M
1429.292 881.62 L
S
GR
GS
[0.75 0 0 0.75 0 -0.25] CT
0.4 GC
2 setlinecap
1 LJ
0.667 LW
N
1442.8 889 M
1442.8 881.62 L
S
GR
GS
[0.75 0 0 0.75 0 -0.25] CT
0.4 GC
2 setlinecap
1 LJ
0.667 LW
N
1531.664 889 M
1531.664 881.62 L
S
GR
GS
[0.75 0 0 0.75 0 -0.25] CT
0.4 GC
2 setlinecap
1 LJ
0.667 LW
N
1583.646 889 M
1583.646 881.62 L
S
GR
GS
[0.75 0 0 0.75 0 -0.25] CT
0.4 GC
2 setlinecap
1 LJ
0.667 LW
N
1620.528 889 M
1620.528 881.62 L
S
GR
GS
[0.75 0 0 0.75 0 -0.25] CT
0.4 GC
2 setlinecap
1 LJ
0.667 LW
N
1649.136 889 M
1649.136 881.62 L
S
GR
GS
[0.75 0 0 0.75 0 -0.25] CT
0.4 GC
2 setlinecap
1 LJ
0.667 LW
N
1672.51 889 M
1672.51 881.62 L
S
GR
GS
[0.75 0 0 0.75 0 -0.25] CT
0.4 GC
2 setlinecap
1 LJ
0.667 LW
N
1692.273 889 M
1692.273 881.62 L
S
GR
GS
[0.75 0 0 0.75 0 -0.25] CT
0.4 GC
2 setlinecap
1 LJ
0.667 LW
N
1709.392 889 M
1709.392 881.62 L
S
GR
GS
[0.75 0 0 0.75 0 -0.25] CT
0.4 GC
2 setlinecap
1 LJ
0.667 LW
N
1724.492 889 M
1724.492 881.62 L
S
GR
GS
[0.75 0 0 0.75 0 -0.25] CT
0.4 GC
2 setlinecap
1 LJ
0.667 LW
N
1738 889 M
1738 881.62 L
S
GR
GS
[0.75 0 0 0.75 0 -0.25] CT
0.4 GC
2 setlinecap
1 LJ
0.667 LW
N
262 521 M
262 528.38 L
S
GR
GS
[0.75 0 0 0.75 0 -0.25] CT
0.4 GC
2 setlinecap
1 LJ
0.667 LW
N
350.864 521 M
350.864 528.38 L
S
GR
GS
[0.75 0 0 0.75 0 -0.25] CT
0.4 GC
2 setlinecap
1 LJ
0.667 LW
N
402.846 521 M
402.846 528.38 L
S
GR
GS
[0.75 0 0 0.75 0 -0.25] CT
0.4 GC
2 setlinecap
1 LJ
0.667 LW
N
439.728 521 M
439.728 528.38 L
S
GR
GS
[0.75 0 0 0.75 0 -0.25] CT
0.4 GC
2 setlinecap
1 LJ
0.667 LW
N
468.336 521 M
468.336 528.38 L
S
GR
GS
[0.75 0 0 0.75 0 -0.25] CT
0.4 GC
2 setlinecap
1 LJ
0.667 LW
N
491.71 521 M
491.71 528.38 L
S
GR
GS
[0.75 0 0 0.75 0 -0.25] CT
0.4 GC
2 setlinecap
1 LJ
0.667 LW
N
511.473 521 M
511.473 528.38 L
S
GR
GS
[0.75 0 0 0.75 0 -0.25] CT
0.4 GC
2 setlinecap
1 LJ
0.667 LW
N
528.592 521 M
528.592 528.38 L
S
GR
GS
[0.75 0 0 0.75 0 -0.25] CT
0.4 GC
2 setlinecap
1 LJ
0.667 LW
N
543.692 521 M
543.692 528.38 L
S
GR
GS
[0.75 0 0 0.75 0 -0.25] CT
0.4 GC
2 setlinecap
1 LJ
0.667 LW
N
557.2 521 M
557.2 528.38 L
S
GR
GS
[0.75 0 0 0.75 0 -0.25] CT
0.4 GC
2 setlinecap
1 LJ
0.667 LW
N
646.064 521 M
646.064 528.38 L
S
GR
GS
[0.75 0 0 0.75 0 -0.25] CT
0.4 GC
2 setlinecap
1 LJ
0.667 LW
N
698.046 521 M
698.046 528.38 L
S
GR
GS
[0.75 0 0 0.75 0 -0.25] CT
0.4 GC
2 setlinecap
1 LJ
0.667 LW
N
734.928 521 M
734.928 528.38 L
S
GR
GS
[0.75 0 0 0.75 0 -0.25] CT
0.4 GC
2 setlinecap
1 LJ
0.667 LW
N
763.536 521 M
763.536 528.38 L
S
GR
GS
[0.75 0 0 0.75 0 -0.25] CT
0.4 GC
2 setlinecap
1 LJ
0.667 LW
N
786.91 521 M
786.91 528.38 L
S
GR
GS
[0.75 0 0 0.75 0 -0.25] CT
0.4 GC
2 setlinecap
1 LJ
0.667 LW
N
806.673 521 M
806.673 528.38 L
S
GR
GS
[0.75 0 0 0.75 0 -0.25] CT
0.4 GC
2 setlinecap
1 LJ
0.667 LW
N
823.792 521 M
823.792 528.38 L
S
GR
GS
[0.75 0 0 0.75 0 -0.25] CT
0.4 GC
2 setlinecap
1 LJ
0.667 LW
N
838.892 521 M
838.892 528.38 L
S
GR
GS
[0.75 0 0 0.75 0 -0.25] CT
0.4 GC
2 setlinecap
1 LJ
0.667 LW
N
852.4 521 M
852.4 528.38 L
S
GR
GS
[0.75 0 0 0.75 0 -0.25] CT
0.4 GC
2 setlinecap
1 LJ
0.667 LW
N
941.264 521 M
941.264 528.38 L
S
GR
GS
[0.75 0 0 0.75 0 -0.25] CT
0.4 GC
2 setlinecap
1 LJ
0.667 LW
N
993.246 521 M
993.246 528.38 L
S
GR
GS
[0.75 0 0 0.75 0 -0.25] CT
0.4 GC
2 setlinecap
1 LJ
0.667 LW
N
1030.128 521 M
1030.128 528.38 L
S
GR
GS
[0.75 0 0 0.75 0 -0.25] CT
0.4 GC
2 setlinecap
1 LJ
0.667 LW
N
1058.736 521 M
1058.736 528.38 L
S
GR
GS
[0.75 0 0 0.75 0 -0.25] CT
0.4 GC
2 setlinecap
1 LJ
0.667 LW
N
1082.11 521 M
1082.11 528.38 L
S
GR
GS
[0.75 0 0 0.75 0 -0.25] CT
0.4 GC
2 setlinecap
1 LJ
0.667 LW
N
1101.873 521 M
1101.873 528.38 L
S
GR
GS
[0.75 0 0 0.75 0 -0.25] CT
0.4 GC
2 setlinecap
1 LJ
0.667 LW
N
1118.992 521 M
1118.992 528.38 L
S
GR
GS
[0.75 0 0 0.75 0 -0.25] CT
0.4 GC
2 setlinecap
1 LJ
0.667 LW
N
1134.092 521 M
1134.092 528.38 L
S
GR
GS
[0.75 0 0 0.75 0 -0.25] CT
0.4 GC
2 setlinecap
1 LJ
0.667 LW
N
1147.6 521 M
1147.6 528.38 L
S
GR
GS
[0.75 0 0 0.75 0 -0.25] CT
0.4 GC
2 setlinecap
1 LJ
0.667 LW
N
1236.464 521 M
1236.464 528.38 L
S
GR
GS
[0.75 0 0 0.75 0 -0.25] CT
0.4 GC
2 setlinecap
1 LJ
0.667 LW
N
1288.446 521 M
1288.446 528.38 L
S
GR
GS
[0.75 0 0 0.75 0 -0.25] CT
0.4 GC
2 setlinecap
1 LJ
0.667 LW
N
1325.328 521 M
1325.328 528.38 L
S
GR
GS
[0.75 0 0 0.75 0 -0.25] CT
0.4 GC
2 setlinecap
1 LJ
0.667 LW
N
1353.936 521 M
1353.936 528.38 L
S
GR
GS
[0.75 0 0 0.75 0 -0.25] CT
0.4 GC
2 setlinecap
1 LJ
0.667 LW
N
1377.31 521 M
1377.31 528.38 L
S
GR
GS
[0.75 0 0 0.75 0 -0.25] CT
0.4 GC
2 setlinecap
1 LJ
0.667 LW
N
1397.073 521 M
1397.073 528.38 L
S
GR
GS
[0.75 0 0 0.75 0 -0.25] CT
0.4 GC
2 setlinecap
1 LJ
0.667 LW
N
1414.192 521 M
1414.192 528.38 L
S
GR
GS
[0.75 0 0 0.75 0 -0.25] CT
0.4 GC
2 setlinecap
1 LJ
0.667 LW
N
1429.292 521 M
1429.292 528.38 L
S
GR
GS
[0.75 0 0 0.75 0 -0.25] CT
0.4 GC
2 setlinecap
1 LJ
0.667 LW
N
1442.8 521 M
1442.8 528.38 L
S
GR
GS
[0.75 0 0 0.75 0 -0.25] CT
0.4 GC
2 setlinecap
1 LJ
0.667 LW
N
1531.664 521 M
1531.664 528.38 L
S
GR
GS
[0.75 0 0 0.75 0 -0.25] CT
0.4 GC
2 setlinecap
1 LJ
0.667 LW
N
1583.646 521 M
1583.646 528.38 L
S
GR
GS
[0.75 0 0 0.75 0 -0.25] CT
0.4 GC
2 setlinecap
1 LJ
0.667 LW
N
1620.528 521 M
1620.528 528.38 L
S
GR
GS
[0.75 0 0 0.75 0 -0.25] CT
0.4 GC
2 setlinecap
1 LJ
0.667 LW
N
1649.136 521 M
1649.136 528.38 L
S
GR
GS
[0.75 0 0 0.75 0 -0.25] CT
0.4 GC
2 setlinecap
1 LJ
0.667 LW
N
1672.51 521 M
1672.51 528.38 L
S
GR
GS
[0.75 0 0 0.75 0 -0.25] CT
0.4 GC
2 setlinecap
1 LJ
0.667 LW
N
1692.273 521 M
1692.273 528.38 L
S
GR
GS
[0.75 0 0 0.75 0 -0.25] CT
0.4 GC
2 setlinecap
1 LJ
0.667 LW
N
1709.392 521 M
1709.392 528.38 L
S
GR
GS
[0.75 0 0 0.75 0 -0.25] CT
0.4 GC
2 setlinecap
1 LJ
0.667 LW
N
1724.492 521 M
1724.492 528.38 L
S
GR
GS
[0.75 0 0 0.75 0 -0.25] CT
0.4 GC
2 setlinecap
1 LJ
0.667 LW
N
1738 521 M
1738 528.38 L
S
GR
GS
[0.75 0 0 0.75 188.25 682.25] CT
0.4 GC
/Helvetica 13.333 F
GS
[1 0 0 1 0 0] CT
0 0 moveto 
1 -1 scale
(10) t 
GR
GR
GS
[0.75 0 0 0.75 199.5 677.75] CT
0.4 GC
/Helvetica 10.667 F
GS
[1 0 0 1 0 0] CT
0 0 moveto 
1 -1 scale
(0) t 
GR
GR
GS
[0.75 0 0 0.75 409.5 682.25] CT
0.4 GC
/Helvetica 13.333 F
GS
[1 0 0 1 0 0] CT
0 0 moveto 
1 -1 scale
(10) t 
GR
GR
GS
[0.75 0 0 0.75 420.75 677.75] CT
0.4 GC
/Helvetica 10.667 F
GS
[1 0 0 1 0 0] CT
0 0 moveto 
1 -1 scale
(1) t 
GR
GR
GS
[0.75 0 0 0.75 630.75 682.25] CT
0.4 GC
/Helvetica 13.333 F
GS
[1 0 0 1 0 0] CT
0 0 moveto 
1 -1 scale
(10) t 
GR
GR
GS
[0.75 0 0 0.75 642 677.75] CT
0.4 GC
/Helvetica 10.667 F
GS
[1 0 0 1 0 0] CT
0 0 moveto 
1 -1 scale
(2) t 
GR
GR
GS
[0.75 0 0 0.75 852.75 682.25] CT
0.4 GC
/Helvetica 13.333 F
GS
[1 0 0 1 0 0] CT
0 0 moveto 
1 -1 scale
(10) t 
GR
GR
GS
[0.75 0 0 0.75 864 677.75] CT
0.4 GC
/Helvetica 10.667 F
GS
[1 0 0 1 0 0] CT
0 0 moveto 
1 -1 scale
(3) t 
GR
GR
GS
[0.75 0 0 0.75 1074 682.25] CT
0.4 GC
/Helvetica 13.333 F
GS
[1 0 0 1 0 0] CT
0 0 moveto 
1 -1 scale
(10) t 
GR
GR
GS
[0.75 0 0 0.75 1085.25 677.75] CT
0.4 GC
/Helvetica 10.667 F
GS
[1 0 0 1 0 0] CT
0 0 moveto 
1 -1 scale
(4) t 
GR
GR
GS
[0.75 0 0 0.75 1295.25 682.25] CT
0.4 GC
/Helvetica 13.333 F
GS
[1 0 0 1 0 0] CT
0 0 moveto 
1 -1 scale
(10) t 
GR
GR
GS
[0.75 0 0 0.75 1306.5 677.75] CT
0.4 GC
/Helvetica 10.667 F
GS
[1 0 0 1 0 0] CT
0 0 moveto 
1 -1 scale
(5) t 
GR
GR
GS
[0.75 0 0 0.75 0 -0.25] CT
0.4 GC
2 setlinecap
1 LJ
0.667 LW
N
262 889 M
262 521 L
S
GR
GS
[0.75 0 0 0.75 0 -0.25] CT
0.4 GC
2 setlinecap
1 LJ
0.667 LW
N
1738 889 M
1738 521 L
S
GR
GS
[0.75 0 0 0.75 0 -0.25] CT
0.4 GC
2 setlinecap
1 LJ
0.667 LW
N
262 885.392 M
276.76 885.392 L
S
GR
GS
[0.75 0 0 0.75 0 -0.25] CT
0.4 GC
2 setlinecap
1 LJ
0.667 LW
N
262 765.131 M
276.76 765.131 L
S
GR
GS
[0.75 0 0 0.75 0 -0.25] CT
0.4 GC
2 setlinecap
1 LJ
0.667 LW
N
262 644.869 M
276.76 644.869 L
S
GR
GS
[0.75 0 0 0.75 0 -0.25] CT
0.4 GC
2 setlinecap
1 LJ
0.667 LW
N
262 524.608 M
276.76 524.608 L
S
GR
GS
[0.75 0 0 0.75 0 -0.25] CT
0.4 GC
2 setlinecap
1 LJ
0.667 LW
N
1738 885.392 M
1723.24 885.392 L
S
GR
GS
[0.75 0 0 0.75 0 -0.25] CT
0.4 GC
2 setlinecap
1 LJ
0.667 LW
N
1738 765.131 M
1723.24 765.131 L
S
GR
GS
[0.75 0 0 0.75 0 -0.25] CT
0.4 GC
2 setlinecap
1 LJ
0.667 LW
N
1738 644.869 M
1723.24 644.869 L
S
GR
GS
[0.75 0 0 0.75 0 -0.25] CT
0.4 GC
2 setlinecap
1 LJ
0.667 LW
N
1738 524.608 M
1723.24 524.608 L
S
GR
GS
[0.75 0 0 0.75 192.49999 663.79411] CT
0.4 GC
/Helvetica 13.333 F
GS
[1 0 0 1 0 0] CT
-19 4.5 moveto 
1 -1 scale
(-90) t 
GR
GR
GS
[0.75 0 0 0.75 192.49999 573.59805] CT
0.4 GC
/Helvetica 13.333 F
GS
[1 0 0 1 0 0] CT
-19 4.5 moveto 
1 -1 scale
(-60) t 
GR
GR
GS
[0.75 0 0 0.75 192.49999 483.40195] CT
0.4 GC
/Helvetica 13.333 F
GS
[1 0 0 1 0 0] CT
-19 4.5 moveto 
1 -1 scale
(-30) t 
GR
GR
GS
[0.75 0 0 0.75 192.49999 393.20589] CT
0.4 GC
/Helvetica 13.333 F
GS
[1 0 0 1 0 0] CT
-8 4.5 moveto 
1 -1 scale
(0) t 
GR
GR
GS
[0 -0.75 0.75 0 175.25 528.49986] CT
/Helvetica 21.333 F
GS
[1 0 0 1 0 0] CT
-57.5 -6 moveto 
1 -1 scale
(Phase \(deg\)) t 
GR
GR
GS
[0.75 0 0 0.75 0 -0.25] CT
0 0.447 0.741 RC
1 LJ
2.667 LW
N
261.824 531.713 M
264.504 531.853 L
284.423 533.07 L
304.341 534.491 L
324.26 536.149 L
344.178 538.085 L
364.096 540.344 L
384.015 542.978 L
403.933 546.048 L
423.852 549.625 L
443.77 553.787 L
463.688 558.623 L
483.607 564.232 L
503.525 570.722 L
523.443 578.205 L
543.362 586.797 L
563.28 596.603 L
583.199 607.711 L
603.117 620.17 L
623.035 633.976 L
642.954 649.044 L
662.872 665.198 L
682.791 682.159 L
702.709 699.564 L
722.628 716.991 L
742.546 734.009 L
762.464 750.227 L
782.383 765.326 L
802.301 779.083 L
822.219 791.37 L
842.138 802.141 L
862.056 811.407 L
881.975 819.222 L
901.893 825.657 L
921.811 830.792 L
941.73 834.699 L
961.648 837.443 L
981.567 839.069 L
1001.485 839.608 L
1021.403 839.069 L
1041.322 837.443 L
1061.24 834.699 L
1081.159 830.792 L
1101.077 825.657 L
1120.995 819.222 L
1140.914 811.407 L
1160.832 802.141 L
1180.751 791.37 L
1200.669 779.083 L
1220.587 765.326 L
1240.506 750.227 L
1260.424 734.009 L
1280.343 716.991 L
1300.261 699.564 L
1320.179 682.159 L
1340.098 665.198 L
1360.016 649.044 L
1379.935 633.976 L
1399.853 620.17 L
1419.771 607.711 L
1439.69 596.603 L
1459.608 586.797 L
1479.527 578.205 L
1499.445 570.722 L
1519.363 564.232 L
1539.282 558.623 L
1559.2 553.787 L
1579.119 549.625 L
1599.037 546.048 L
1618.955 542.978 L
1638.874 540.344 L
1658.792 538.085 L
1678.711 536.149 L
1698.629 534.491 L
1718.547 533.07 L
1738.176 531.871 L
S
GR
GS
[0.75 0 0 0.75 749.25 63.73625] CT
/Helvetica-Bold 21.333 F
GS
[1 0 0 1 0 0] CT
-68 -6 moveto 
1 -1 scale
(Bode Diagram) t 
GR
GR
GS
[0.75 0 0 0.75 749.25 684.74998] CT
/Helvetica 21.333 F
GS
[1 0 0 1 0 0] CT
-75 20 moveto 
1 -1 scale
(Frequency  \(Hz\)) t 
GR
GR
%%Trailer
%%Pages: 1
%%EOF
