%!PS-Adobe-3.0 EPSF-3.0
%%Creator: (MATLAB, The Mathworks, Inc. Version 9.13.0.2166757 \(R2022b\) Update 4. Operating System: Linux)
%%Title: ./malos.eps
%%CreationDate: 2023-05-10T20:48:24
%%Pages: (atend)
%%BoundingBox:     2     5  1439   806
%%LanguageLevel: 3
%%EndComments
%%BeginProlog
%%BeginResource: procset (Apache XML Graphics Std ProcSet) 1.2 0
%%Version: 1.2 0
%%Copyright: (Copyright 2001-2003,2010 The Apache Software Foundation. License terms: http://www.apache.org/licenses/LICENSE-2.0)
/bd{bind def}bind def
/ld{load def}bd
/GR/grestore ld
/GS/gsave ld
/RM/rmoveto ld
/C/curveto ld
/t/show ld
/L/lineto ld
/ML/setmiterlimit ld
/CT/concat ld
/f/fill ld
/N/newpath ld
/S/stroke ld
/CC/setcmykcolor ld
/A/ashow ld
/cp/closepath ld
/RC/setrgbcolor ld
/LJ/setlinejoin ld
/GC/setgray ld
/LW/setlinewidth ld
/M/moveto ld
/re {4 2 roll M
1 index 0 rlineto
0 exch rlineto
neg 0 rlineto
cp } bd
/_ctm matrix def
/_tm matrix def
/BT { _ctm currentmatrix pop matrix _tm copy pop 0 0 moveto } bd
/ET { _ctm setmatrix } bd
/iTm { _ctm setmatrix _tm concat } bd
/Tm { _tm astore pop iTm 0 0 moveto } bd
/ux 0.0 def
/uy 0.0 def
/F {
  /Tp exch def
  /Tf exch def
  Tf findfont Tp scalefont setfont
  /cf Tf def  /cs Tp def
} bd
/ULS {currentpoint /uy exch def /ux exch def} bd
/ULE {
  /Tcx currentpoint pop def
  gsave
  newpath
  cf findfont cs scalefont dup
  /FontMatrix get 0 get /Ts exch def /FontInfo get dup
  /UnderlinePosition get Ts mul /To exch def
  /UnderlineThickness get Ts mul /Tt exch def
  ux uy To add moveto  Tcx uy To add lineto
  Tt setlinewidth stroke
  grestore
} bd
/OLE {
  /Tcx currentpoint pop def
  gsave
  newpath
  cf findfont cs scalefont dup
  /FontMatrix get 0 get /Ts exch def /FontInfo get dup
  /UnderlinePosition get Ts mul /To exch def
  /UnderlineThickness get Ts mul /Tt exch def
  ux uy To add cs add moveto Tcx uy To add cs add lineto
  Tt setlinewidth stroke
  grestore
} bd
/SOE {
  /Tcx currentpoint pop def
  gsave
  newpath
  cf findfont cs scalefont dup
  /FontMatrix get 0 get /Ts exch def /FontInfo get dup
  /UnderlinePosition get Ts mul /To exch def
  /UnderlineThickness get Ts mul /Tt exch def
  ux uy To add cs 10 mul 26 idiv add moveto Tcx uy To add cs 10 mul 26 idiv add lineto
  Tt setlinewidth stroke
  grestore
} bd
/QT {
/Y22 exch store
/X22 exch store
/Y21 exch store
/X21 exch store
currentpoint
/Y21 load 2 mul add 3 div exch
/X21 load 2 mul add 3 div exch
/X21 load 2 mul /X22 load add 3 div
/Y21 load 2 mul /Y22 load add 3 div
/X22 load /Y22 load curveto
} bd
/SSPD {
dup length /d exch dict def
{
/v exch def
/k exch def
currentpagedevice k known {
/cpdv currentpagedevice k get def
v cpdv ne {
/upd false def
/nullv v type /nulltype eq def
/nullcpdv cpdv type /nulltype eq def
nullv nullcpdv or
{
/upd true def
} {
/sametype v type cpdv type eq def
sametype {
v type /arraytype eq {
/vlen v length def
/cpdvlen cpdv length def
vlen cpdvlen eq {
0 1 vlen 1 sub {
/i exch def
/obj v i get def
/cpdobj cpdv i get def
obj cpdobj ne {
/upd true def
exit
} if
} for
} {
/upd true def
} ifelse
} {
v type /dicttype eq {
v {
/dv exch def
/dk exch def
/cpddv cpdv dk get def
dv cpddv ne {
/upd true def
exit
} if
} forall
} {
/upd true def
} ifelse
} ifelse
} if
} ifelse
upd true eq {
d k v put
} if
} if
} if
} forall
d length 0 gt {
d setpagedevice
} if
} bd
/RE { % /NewFontName [NewEncodingArray] /FontName RE -
  findfont dup length dict begin
  {
    1 index /FID ne
    {def} {pop pop} ifelse
  } forall
  /Encoding exch def
  /FontName 1 index def
  currentdict definefont pop
  end
} bind def
%%EndResource
%%BeginResource: procset (Apache XML Graphics EPS ProcSet) 1.0 0
%%Version: 1.0 0
%%Copyright: (Copyright 2002-2003 The Apache Software Foundation. License terms: http://www.apache.org/licenses/LICENSE-2.0)
/BeginEPSF { %def
/b4_Inc_state save def         % Save state for cleanup
/dict_count countdictstack def % Count objects on dict stack
/op_count count 1 sub def      % Count objects on operand stack
userdict begin                 % Push userdict on dict stack
/showpage { } def              % Redefine showpage, { } = null proc
0 setgray 0 setlinecap         % Prepare graphics state
1 setlinewidth 0 setlinejoin
10 setmiterlimit [ ] 0 setdash newpath
/languagelevel where           % If level not equal to 1 then
{pop languagelevel             % set strokeadjust and
1 ne                           % overprint to their defaults.
{false setstrokeadjust false setoverprint
} if
} if
} bd
/EndEPSF { %def
count op_count sub {pop} repeat            % Clean up stacks
countdictstack dict_count sub {end} repeat
b4_Inc_state restore
} bd
%%EndResource
%FOPBeginFontDict
%%IncludeResource: font Courier-Oblique
%%IncludeResource: font Courier-BoldOblique
%%IncludeResource: font Courier-Bold
%%IncludeResource: font ZapfDingbats
%%IncludeResource: font Symbol
%%IncludeResource: font Helvetica
%%IncludeResource: font Helvetica-Oblique
%%IncludeResource: font Helvetica-Bold
%%IncludeResource: font Helvetica-BoldOblique
%%IncludeResource: font Times-Roman
%%IncludeResource: font Times-Italic
%%IncludeResource: font Times-Bold
%%IncludeResource: font Times-BoldItalic
%%IncludeResource: font Courier
%FOPEndFontDict
%%BeginResource: encoding WinAnsiEncoding
/WinAnsiEncoding [
/.notdef /.notdef /.notdef /.notdef /.notdef
/.notdef /.notdef /.notdef /.notdef /.notdef
/.notdef /.notdef /.notdef /.notdef /.notdef
/.notdef /.notdef /.notdef /.notdef /.notdef
/.notdef /.notdef /.notdef /.notdef /.notdef
/.notdef /.notdef /.notdef /.notdef /.notdef
/.notdef /.notdef /space /exclam /quotedbl
/numbersign /dollar /percent /ampersand /quotesingle
/parenleft /parenright /asterisk /plus /comma
/hyphen /period /slash /zero /one
/two /three /four /five /six
/seven /eight /nine /colon /semicolon
/less /equal /greater /question /at
/A /B /C /D /E
/F /G /H /I /J
/K /L /M /N /O
/P /Q /R /S /T
/U /V /W /X /Y
/Z /bracketleft /backslash /bracketright /asciicircum
/underscore /quoteleft /a /b /c
/d /e /f /g /h
/i /j /k /l /m
/n /o /p /q /r
/s /t /u /v /w
/x /y /z /braceleft /bar
/braceright /asciitilde /bullet /Euro /bullet
/quotesinglbase /florin /quotedblbase /ellipsis /dagger
/daggerdbl /circumflex /perthousand /Scaron /guilsinglleft
/OE /bullet /Zcaron /bullet /bullet
/quoteleft /quoteright /quotedblleft /quotedblright /bullet
/endash /emdash /asciitilde /trademark /scaron
/guilsinglright /oe /bullet /zcaron /Ydieresis
/space /exclamdown /cent /sterling /currency
/yen /brokenbar /section /dieresis /copyright
/ordfeminine /guillemotleft /logicalnot /sfthyphen /registered
/macron /degree /plusminus /twosuperior /threesuperior
/acute /mu /paragraph /middot /cedilla
/onesuperior /ordmasculine /guillemotright /onequarter /onehalf
/threequarters /questiondown /Agrave /Aacute /Acircumflex
/Atilde /Adieresis /Aring /AE /Ccedilla
/Egrave /Eacute /Ecircumflex /Edieresis /Igrave
/Iacute /Icircumflex /Idieresis /Eth /Ntilde
/Ograve /Oacute /Ocircumflex /Otilde /Odieresis
/multiply /Oslash /Ugrave /Uacute /Ucircumflex
/Udieresis /Yacute /Thorn /germandbls /agrave
/aacute /acircumflex /atilde /adieresis /aring
/ae /ccedilla /egrave /eacute /ecircumflex
/edieresis /igrave /iacute /icircumflex /idieresis
/eth /ntilde /ograve /oacute /ocircumflex
/otilde /odieresis /divide /oslash /ugrave
/uacute /ucircumflex /udieresis /yacute /thorn
/ydieresis
] def
%%EndResource
%FOPBeginFontReencode
/Courier-Oblique findfont
dup length dict begin
  {1 index /FID ne {def} {pop pop} ifelse} forall
  /Encoding WinAnsiEncoding def
  currentdict
end
/Courier-Oblique exch definefont pop
/Courier-BoldOblique findfont
dup length dict begin
  {1 index /FID ne {def} {pop pop} ifelse} forall
  /Encoding WinAnsiEncoding def
  currentdict
end
/Courier-BoldOblique exch definefont pop
/Courier-Bold findfont
dup length dict begin
  {1 index /FID ne {def} {pop pop} ifelse} forall
  /Encoding WinAnsiEncoding def
  currentdict
end
/Courier-Bold exch definefont pop
/Helvetica findfont
dup length dict begin
  {1 index /FID ne {def} {pop pop} ifelse} forall
  /Encoding WinAnsiEncoding def
  currentdict
end
/Helvetica exch definefont pop
/Helvetica-Oblique findfont
dup length dict begin
  {1 index /FID ne {def} {pop pop} ifelse} forall
  /Encoding WinAnsiEncoding def
  currentdict
end
/Helvetica-Oblique exch definefont pop
/Helvetica-Bold findfont
dup length dict begin
  {1 index /FID ne {def} {pop pop} ifelse} forall
  /Encoding WinAnsiEncoding def
  currentdict
end
/Helvetica-Bold exch definefont pop
/Helvetica-BoldOblique findfont
dup length dict begin
  {1 index /FID ne {def} {pop pop} ifelse} forall
  /Encoding WinAnsiEncoding def
  currentdict
end
/Helvetica-BoldOblique exch definefont pop
/Times-Roman findfont
dup length dict begin
  {1 index /FID ne {def} {pop pop} ifelse} forall
  /Encoding WinAnsiEncoding def
  currentdict
end
/Times-Roman exch definefont pop
/Times-Italic findfont
dup length dict begin
  {1 index /FID ne {def} {pop pop} ifelse} forall
  /Encoding WinAnsiEncoding def
  currentdict
end
/Times-Italic exch definefont pop
/Times-Bold findfont
dup length dict begin
  {1 index /FID ne {def} {pop pop} ifelse} forall
  /Encoding WinAnsiEncoding def
  currentdict
end
/Times-Bold exch definefont pop
/Times-BoldItalic findfont
dup length dict begin
  {1 index /FID ne {def} {pop pop} ifelse} forall
  /Encoding WinAnsiEncoding def
  currentdict
end
/Times-BoldItalic exch definefont pop
/Courier findfont
dup length dict begin
  {1 index /FID ne {def} {pop pop} ifelse} forall
  /Encoding WinAnsiEncoding def
  currentdict
end
/Courier exch definefont pop
%FOPEndFontReencode
%%EndProlog
%%Page: 1 1
%%PageBoundingBox: 0 0 1440 810
%%BeginPageSetup
N
    2     5 M
 1441     5 L
 1441   811 L
    2   811 L
cp
clip
[1 0 0 -1 0 810] CT
%%EndPageSetup
GS
[0.75 0 0 0.75 0 0] CT
1 GC
N
0 0 1920 1080 re
f
GR
GS
[0.75 0 0 0.75 0 0] CT
1 GC
N
0 0 1920 1080 re
f
GR
GS
[0.75 0 0 0.75 0 0] CT
1 GC
N
53 1024 M
1905 1024 L
1905 39 L
53 39 L
cp
f
GR
GS
[0.75 0 0 0.75 0 0] CT
0.149 GC
2 setlinecap
1 LJ
0.667 LW
N
53 1024 M
1905 1024 L
S
GR
GS
[0.75 0 0 0.75 0 0] CT
0.149 GC
2 setlinecap
1 LJ
0.667 LW
N
53 1024 M
53 1005.48 L
S
GR
GS
[0.75 0 0 0.75 0 0] CT
0.149 GC
2 setlinecap
1 LJ
0.667 LW
N
361.667 1024 M
361.667 1005.48 L
S
GR
GS
[0.75 0 0 0.75 0 0] CT
0.149 GC
2 setlinecap
1 LJ
0.667 LW
N
670.333 1024 M
670.333 1005.48 L
S
GR
GS
[0.75 0 0 0.75 0 0] CT
0.149 GC
2 setlinecap
1 LJ
0.667 LW
N
979 1024 M
979 1005.48 L
S
GR
GS
[0.75 0 0 0.75 0 0] CT
0.149 GC
2 setlinecap
1 LJ
0.667 LW
N
1287.667 1024 M
1287.667 1005.48 L
S
GR
GS
[0.75 0 0 0.75 0 0] CT
0.149 GC
2 setlinecap
1 LJ
0.667 LW
N
1596.333 1024 M
1596.333 1005.48 L
S
GR
GS
[0.75 0 0 0.75 0 0] CT
0.149 GC
2 setlinecap
1 LJ
0.667 LW
N
1905 1024 M
1905 1005.48 L
S
GR
GS
[0.75 0 0 0.75 39.75 771.99994] CT
0.149 GC
/Helvetica 13.333 F
GS
[1 0 0 1 0 0] CT
-4 13 moveto 
1 -1 scale
(0) t 
GR
GR
GS
[0.75 0 0 0.75 271.24999 771.99994] CT
0.149 GC
/Helvetica 13.333 F
GS
[1 0 0 1 0 0] CT
-11.5 13 moveto 
1 -1 scale
(500) t 
GR
GR
GS
[0.75 0 0 0.75 502.74998 771.99994] CT
0.149 GC
/Helvetica 13.333 F
GS
[1 0 0 1 0 0] CT
-15 13 moveto 
1 -1 scale
(1000) t 
GR
GR
GS
[0.75 0 0 0.75 734.25 771.99994] CT
0.149 GC
/Helvetica 13.333 F
GS
[1 0 0 1 0 0] CT
-15 13 moveto 
1 -1 scale
(1500) t 
GR
GR
GS
[0.75 0 0 0.75 965.74997 771.99994] CT
0.149 GC
/Helvetica 13.333 F
GS
[1 0 0 1 0 0] CT
-15 13 moveto 
1 -1 scale
(2000) t 
GR
GR
GS
[0.75 0 0 0.75 1197.25003 771.99994] CT
0.149 GC
/Helvetica 13.333 F
GS
[1 0 0 1 0 0] CT
-15 13 moveto 
1 -1 scale
(2500) t 
GR
GR
GS
[0.75 0 0 0.75 1428.75 771.99994] CT
0.149 GC
/Helvetica 13.333 F
GS
[1 0 0 1 0 0] CT
-15 13 moveto 
1 -1 scale
(3000) t 
GR
GR
GS
[0.75 0 0 0.75 734.25069 785.74997] CT
0.149 GC
/Helvetica 26.667 F
GS
[1 0 0 1 0 0] CT
-48.5 25 moveto 
1 -1 scale
(Instante) t 
GR
GR
GS
[0.75 0 0 0.75 0 0] CT
0.149 GC
2 setlinecap
1 LJ
0.667 LW
N
53 1024 M
53 39 L
S
GR
GS
[0.75 0 0 0.75 0 0] CT
0.149 GC
2 setlinecap
1 LJ
0.667 LW
N
53 1024 M
71.52 1024 L
S
GR
GS
[0.75 0 0 0.75 0 0] CT
0.149 GC
2 setlinecap
1 LJ
0.667 LW
N
53 859.833 M
71.52 859.833 L
S
GR
GS
[0.75 0 0 0.75 0 0] CT
0.149 GC
2 setlinecap
1 LJ
0.667 LW
N
53 695.667 M
71.52 695.667 L
S
GR
GS
[0.75 0 0 0.75 0 0] CT
0.149 GC
2 setlinecap
1 LJ
0.667 LW
N
53 531.5 M
71.52 531.5 L
S
GR
GS
[0.75 0 0 0.75 0 0] CT
0.149 GC
2 setlinecap
1 LJ
0.667 LW
N
53 367.333 M
71.52 367.333 L
S
GR
GS
[0.75 0 0 0.75 0 0] CT
0.149 GC
2 setlinecap
1 LJ
0.667 LW
N
53 203.167 M
71.52 203.167 L
S
GR
GS
[0.75 0 0 0.75 0 0] CT
0.149 GC
2 setlinecap
1 LJ
0.667 LW
N
53 39 M
71.52 39 L
S
GR
GS
[0.75 0 0 0.75 35.75 768] CT
0.149 GC
/Helvetica 13.333 F
GS
[1 0 0 1 0 0] CT
-12 4.5 moveto 
1 -1 scale
(-9) t 
GR
GR
GS
[0.75 0 0 0.75 35.75 644.87498] CT
0.149 GC
/Helvetica 13.333 F
GS
[1 0 0 1 0 0] CT
-12 4.5 moveto 
1 -1 scale
(-8) t 
GR
GR
GS
[0.75 0 0 0.75 35.75 521.75002] CT
0.149 GC
/Helvetica 13.333 F
GS
[1 0 0 1 0 0] CT
-12 4.5 moveto 
1 -1 scale
(-7) t 
GR
GR
GS
[0.75 0 0 0.75 35.75 398.625] CT
0.149 GC
/Helvetica 13.333 F
GS
[1 0 0 1 0 0] CT
-12 4.5 moveto 
1 -1 scale
(-6) t 
GR
GR
GS
[0.75 0 0 0.75 35.75 275.50001] CT
0.149 GC
/Helvetica 13.333 F
GS
[1 0 0 1 0 0] CT
-12 4.5 moveto 
1 -1 scale
(-5) t 
GR
GR
GS
[0.75 0 0 0.75 35.75 152.375] CT
0.149 GC
/Helvetica 13.333 F
GS
[1 0 0 1 0 0] CT
-12 4.5 moveto 
1 -1 scale
(-4) t 
GR
GR
GS
[0.75 0 0 0.75 35.75 29.25] CT
0.149 GC
/Helvetica 13.333 F
GS
[1 0 0 1 0 0] CT
-12 4.5 moveto 
1 -1 scale
(-3) t 
GR
GR
GS
[0 -0.75 0.75 0 18.75 438] CT
0.149 GC
N
3.266 0.297 M
1.734 0.297 1.055 -0.82 QT
0.375 -1.938 0.375 -3.563 QT
0.375 -4.625 0.57 -5.648 QT
0.766 -6.672 1.156 -7.719 QT
1.547 -8.766 2.047 -9.68 QT
2.547 -10.594 3.172 -11.469 QT
3.281 -11.641 3.484 -11.641 QT
3.656 -11.641 3.758 -11.539 QT
3.859 -11.438 3.859 -11.281 QT
3.859 -11.141 3.781 -11.016 QT
1.313 -7.641 1.313 -4.766 QT
1.313 -3.531 1.891 -2.641 QT
2.469 -1.75 3.641 -1.75 QT
4.656 -1.75 5.516 -2.344 QT
6.375 -2.938 7.016 -3.859 QT
7.016 -4.344 7.18 -5.344 QT
7.344 -6.344 7.695 -7.125 QT
8.047 -7.906 8.531 -7.906 QT
9.156 -7.906 9.156 -7.188 QT
9.156 -6.766 8.977 -6.125 QT
8.797 -5.484 8.578 -4.93 QT
8.359 -4.375 8.047 -3.672 QT
8.359 -1.75 9.969 -1.75 QT
10.906 -1.75 11.844 -2.289 QT
12.781 -2.828 13.508 -3.711 QT
14.234 -4.594 14.648 -5.609 QT
15.063 -6.625 15.063 -7.531 QT
15.063 -8.344 14.813 -8.797 QT
14.563 -9.25 14.141 -9.75 QT
13.719 -10.25 13.719 -10.563 QT
13.719 -11.094 14.164 -11.523 QT
14.609 -11.953 15.125 -11.953 QT
15.781 -11.953 16.055 -11.359 QT
16.328 -10.766 16.328 -10 QT
16.328 -8.75 15.836 -6.867 QT
15.344 -4.984 14.719 -3.734 QT
13.844 -2.031 12.531 -0.867 QT
11.219 0.297 9.578 0.297 QT
8.547 0.297 7.906 -0.328 QT
7.266 -0.953 7.078 -2.031 QT
6.328 -0.969 5.367 -0.336 QT
4.406 0.297 3.266 0.297 QT
cp
f
GR
GS
[0 -0.75 0.75 0 18.75 425.25] CT
0.149 GC
/Helvetica 26.667 F
GS
[1 0 0 1 0 0] CT
0 0 moveto 
1 -1 scale
( \(rad/s\)) t 
GR
GR
GS
[0.75 0 0 0.75 734.25069 25.50001] CT
/Helvetica-Bold 26.667 F
GS
[1 0 0 1 0 0] CT
-193.5 -7 moveto 
1 -1 scale
(Velocidad con fallo en el c\341lculo) t 
GR
GR
GS
[0.75 0 0 0.75 0 0] CT
0 0.447 0.741 RC
1 LJ
2.667 LW
N
53.617 841.617 M
54.235 583.595 L
54.852 789.01 L
55.469 541.009 L
56.087 753.939 L
56.704 926.789 L
57.321 651.232 L
57.939 841.617 L
58.556 583.595 L
59.173 789.01 L
59.791 541.009 L
60.408 753.939 L
61.025 926.789 L
61.643 651.232 L
62.26 841.617 L
62.877 583.595 L
63.495 789.01 L
64.112 541.009 L
64.729 753.939 L
65.347 926.789 L
65.964 651.232 L
66.581 841.617 L
67.199 583.595 L
67.816 789.01 L
68.433 541.009 L
69.051 753.939 L
69.668 926.789 L
70.285 651.232 L
70.903 841.617 L
71.52 583.595 L
72.137 789.01 L
72.755 541.009 L
73.372 753.939 L
73.989 926.789 L
74.607 651.232 L
75.224 841.617 L
75.841 583.595 L
76.459 789.01 L
77.076 541.009 L
77.693 753.939 L
78.311 926.789 L
78.928 651.232 L
79.545 841.617 L
80.163 583.595 L
80.78 789.01 L
81.397 541.009 L
82.015 753.939 L
82.632 926.789 L
83.249 651.232 L
83.867 841.617 L
84.484 583.595 L
85.101 789.01 L
85.719 541.009 L
86.336 753.939 L
86.953 926.789 L
87.571 651.232 L
88.188 841.617 L
88.805 583.595 L
89.423 789.01 L
90.04 541.009 L
90.657 753.939 L
91.275 926.789 L
91.892 651.232 L
92.509 841.617 L
93.127 583.595 L
93.744 789.01 L
94.361 541.009 L
94.979 753.939 L
95.596 926.789 L
96.213 651.232 L
96.831 841.617 L
97.448 583.595 L
98.065 789.01 L
98.683 541.009 L
99.3 753.939 L
99.917 926.789 L
100.535 651.232 L
101.152 841.617 L
101.769 583.595 L
102.387 789.01 L
103.004 541.009 L
103.621 753.939 L
104.239 926.789 L
104.856 651.232 L
105.473 841.617 L
106.091 583.595 L
106.708 789.01 L
107.325 954.344 L
107.943 671.272 L
108.56 859.152 L
109.177 598.626 L
109.795 799.03 L
110.412 548.524 L
111.029 761.455 L
111.647 931.799 L
112.264 653.737 L
112.881 846.627 L
113.499 586.1 L
114.116 791.515 L
114.733 543.514 L
115.351 756.444 L
115.968 926.789 L
116.585 651.232 L
117.203 844.122 L
117.82 583.595 L
118.437 789.01 L
119.055 954.344 L
119.672 671.272 L
120.289 859.152 L
120.907 598.626 L
121.524 799.03 L
122.141 548.524 L
122.759 761.455 L
123.376 931.799 L
123.993 653.737 L
124.611 846.627 L
125.228 586.1 L
125.845 791.515 L
126.463 543.514 L
127.08 756.444 L
127.697 926.789 L
128.315 651.232 L
128.932 844.122 L
129.549 583.595 L
130.167 789.01 L
130.784 541.009 L
131.401 753.939 L
132.019 926.789 L
132.636 651.232 L
133.253 841.617 L
133.871 583.595 L
134.488 789.01 L
135.105 541.009 L
135.723 753.939 L
136.34 926.789 L
136.957 651.232 L
137.575 841.617 L
138.192 583.595 L
138.809 789.01 L
139.427 541.009 L
140.044 753.939 L
140.661 926.789 L
141.279 651.232 L
141.896 841.617 L
142.513 583.595 L
143.131 789.01 L
143.748 954.344 L
144.365 671.272 L
144.983 859.152 L
145.6 598.626 L
146.217 799.03 L
146.835 548.524 L
147.452 761.455 L
148.069 931.799 L
148.687 653.737 L
149.304 846.627 L
149.921 586.1 L
150.539 791.515 L
151.156 954.344 L
151.773 673.777 L
152.391 861.657 L
153.008 598.626 L
153.625 801.536 L
154.243 551.029 L
154.86 761.455 L
155.477 931.799 L
156.095 656.242 L
156.712 846.627 L
157.329 586.1 L
157.947 791.515 L
158.564 543.514 L
159.181 756.444 L
159.799 926.789 L
160.416 651.232 L
161.033 844.122 L
161.651 583.595 L
162.268 789.01 L
162.885 954.344 L
163.503 671.272 L
164.12 859.152 L
164.737 598.626 L
165.355 799.03 L
165.972 961.859 L
166.589 678.788 L
167.207 866.667 L
167.824 601.131 L
168.441 804.041 L
169.059 553.535 L
169.676 763.96 L
170.293 934.304 L
170.911 656.242 L
171.528 846.627 L
172.145 588.605 L
172.763 791.515 L
173.38 956.849 L
173.997 673.777 L
174.615 861.657 L
175.232 598.626 L
175.849 801.536 L
176.467 551.029 L
177.084 761.455 L
177.701 931.799 L
178.319 656.242 L
178.936 846.627 L
179.553 586.1 L
180.171 791.515 L
180.788 543.514 L
181.405 756.444 L
182.023 926.789 L
182.64 651.232 L
183.257 844.122 L
183.875 583.595 L
184.492 789.01 L
185.109 954.344 L
185.727 671.272 L
186.344 859.152 L
186.961 598.626 L
187.579 801.536 L
188.196 551.029 L
188.813 761.455 L
189.431 931.799 L
190.048 653.737 L
190.665 846.627 L
191.283 586.1 L
191.9 791.515 L
192.517 543.514 L
193.135 756.444 L
193.752 926.789 L
194.369 651.232 L
194.987 844.122 L
195.604 583.595 L
196.221 789.01 L
196.839 541.009 L
197.456 753.939 L
198.073 926.789 L
198.691 651.232 L
199.308 841.617 L
199.925 583.595 L
200.543 789.01 L
201.16 541.009 L
201.777 753.939 L
202.395 926.789 L
203.012 651.232 L
203.629 841.617 L
204.247 583.595 L
204.864 789.01 L
205.481 541.009 L
206.099 753.939 L
206.716 926.789 L
207.333 651.232 L
207.951 841.617 L
208.568 583.595 L
209.185 789.01 L
209.803 541.009 L
210.42 753.939 L
211.037 926.789 L
211.655 651.232 L
212.272 841.617 L
212.889 583.595 L
213.507 789.01 L
214.124 541.009 L
214.741 753.939 L
215.359 926.789 L
215.976 651.232 L
216.593 841.617 L
217.211 583.595 L
217.828 789.01 L
218.445 541.009 L
219.063 753.939 L
219.68 926.789 L
220.297 651.232 L
220.915 841.617 L
221.532 583.595 L
222.149 789.01 L
222.767 541.009 L
223.384 753.939 L
224.001 926.789 L
224.619 651.232 L
225.236 841.617 L
225.853 583.595 L
226.471 789.01 L
227.088 541.009 L
227.705 753.939 L
228.323 926.789 L
228.94 651.232 L
229.557 841.617 L
230.175 583.595 L
230.792 789.01 L
231.409 541.009 L
232.027 753.939 L
232.644 926.789 L
233.261 651.232 L
233.879 841.617 L
234.496 583.595 L
235.113 789.01 L
235.731 541.009 L
236.348 753.939 L
236.965 926.789 L
237.583 651.232 L
238.2 841.617 L
238.817 583.595 L
239.435 789.01 L
240.052 541.009 L
240.669 753.939 L
241.287 926.789 L
241.904 651.232 L
242.521 841.617 L
243.139 583.595 L
243.756 789.01 L
244.373 541.009 L
244.991 753.939 L
245.608 926.789 L
246.225 651.232 L
246.843 841.617 L
247.46 583.595 L
248.077 789.01 L
248.695 954.344 L
249.312 671.272 L
249.929 859.152 L
250.547 598.626 L
251.164 799.03 L
251.781 961.859 L
252.399 678.788 L
253.016 866.667 L
253.633 601.131 L
254.251 804.041 L
254.868 553.535 L
255.485 763.96 L
256.103 934.304 L
256.72 656.242 L
257.337 846.627 L
257.955 586.1 L
258.572 791.515 L
259.189 543.514 L
259.807 756.444 L
260.424 926.789 L
261.041 651.232 L
261.659 844.122 L
262.276 583.595 L
262.893 789.01 L
263.511 954.344 L
264.128 673.777 L
264.745 859.152 L
265.363 598.626 L
265.98 801.536 L
266.597 961.859 L
267.215 678.788 L
267.832 866.667 L
268.449 601.131 L
269.067 804.041 L
269.684 553.535 L
270.301 763.96 L
270.919 934.304 L
271.536 656.242 L
272.153 846.627 L
272.771 588.605 L
273.388 791.515 L
274.005 543.514 L
274.623 756.444 L
275.24 926.789 L
275.857 651.232 L
276.475 844.122 L
277.092 583.595 L
277.709 789.01 L
278.327 954.344 L
278.944 673.777 L
279.561 859.152 L
280.179 598.626 L
280.796 801.536 L
281.413 551.029 L
282.031 761.455 L
282.648 931.799 L
283.265 653.737 L
283.883 846.627 L
284.5 586.1 L
285.117 791.515 L
285.735 954.344 L
286.352 673.777 L
286.969 861.657 L
287.587 598.626 L
288.204 801.536 L
288.821 551.029 L
289.439 761.455 L
290.056 931.799 L
290.673 656.242 L
291.291 846.627 L
291.908 586.1 L
292.525 791.515 L
293.143 543.514 L
293.76 756.444 L
294.377 926.789 L
294.995 651.232 L
295.612 844.122 L
296.229 583.595 L
296.847 789.01 L
297.464 541.009 L
298.081 753.939 L
298.699 926.789 L
299.316 651.232 L
299.933 841.617 L
300.551 583.595 L
301.168 789.01 L
301.785 541.009 L
302.403 753.939 L
303.02 926.789 L
303.637 651.232 L
304.255 841.617 L
304.872 583.595 L
305.489 789.01 L
306.107 954.344 L
306.724 671.272 L
307.341 859.152 L
307.959 598.626 L
308.576 799.03 L
309.193 548.524 L
309.811 761.455 L
310.428 931.799 L
311.045 653.737 L
311.663 846.627 L
312.28 586.1 L
312.897 791.515 L
313.515 954.344 L
314.132 673.777 L
314.749 861.657 L
315.367 598.626 L
315.984 801.536 L
316.601 551.029 L
317.219 761.455 L
317.836 931.799 L
318.453 656.242 L
319.071 846.627 L
319.688 586.1 L
320.305 791.515 L
320.923 543.514 L
321.54 756.444 L
322.157 926.789 L
322.775 651.232 L
323.392 844.122 L
324.009 583.595 L
324.627 789.01 L
325.244 954.344 L
325.861 671.272 L
326.479 859.152 L
327.096 598.626 L
327.713 799.03 L
328.331 961.859 L
328.948 678.788 L
329.565 866.667 L
330.183 601.131 L
330.8 804.041 L
331.417 553.535 L
332.035 763.96 L
332.652 934.304 L
333.269 656.242 L
333.887 846.627 L
334.504 588.605 L
335.121 791.515 L
335.739 956.849 L
336.356 673.777 L
336.973 861.657 L
337.591 598.626 L
338.208 801.536 L
338.825 961.859 L
339.443 678.788 L
340.06 866.667 L
340.677 603.636 L
341.295 804.041 L
341.912 553.535 L
342.529 763.96 L
343.147 934.304 L
343.764 656.242 L
344.381 846.627 L
344.999 588.605 L
345.616 791.515 L
346.233 956.849 L
346.851 673.777 L
347.468 861.657 L
348.085 598.626 L
348.703 801.536 L
349.32 961.859 L
349.937 678.788 L
350.555 866.667 L
351.172 603.636 L
351.789 804.041 L
352.407 553.535 L
353.024 763.96 L
353.641 934.304 L
354.259 656.242 L
354.876 846.627 L
355.493 999.435 L
356.111 708.848 L
356.728 889.213 L
357.345 621.171 L
357.963 819.071 L
358.58 566.06 L
359.197 773.98 L
359.815 941.819 L
360.432 663.757 L
361.049 851.637 L
361.667 591.11 L
362.284 794.02 L
362.901 546.019 L
363.519 758.95 L
364.136 929.294 L
364.753 653.737 L
365.371 844.122 L
365.988 996.93 L
366.605 708.848 L
367.223 889.213 L
367.84 621.171 L
368.457 819.071 L
369.075 563.555 L
369.692 773.98 L
370.309 941.819 L
370.927 661.252 L
371.544 851.637 L
372.161 591.11 L
372.779 794.02 L
373.396 959.354 L
374.013 676.282 L
374.631 864.162 L
375.248 601.131 L
375.865 801.536 L
376.483 964.364 L
377.1 681.293 L
377.717 866.667 L
378.335 603.636 L
378.952 804.041 L
379.569 553.535 L
380.187 763.96 L
380.804 934.304 L
381.421 656.242 L
382.039 846.627 L
382.656 588.605 L
383.273 791.515 L
383.891 956.849 L
384.508 673.777 L
385.125 861.657 L
385.743 598.626 L
386.36 801.536 L
386.977 961.859 L
387.595 678.788 L
388.212 866.667 L
388.829 603.636 L
389.447 804.041 L
390.064 553.535 L
390.681 763.96 L
391.299 934.304 L
391.916 656.242 L
392.533 846.627 L
393.151 588.605 L
393.768 791.515 L
394.385 956.849 L
395.003 673.777 L
395.62 861.657 L
396.237 598.626 L
396.855 801.536 L
397.472 961.859 L
398.089 678.788 L
398.707 866.667 L
399.324 603.636 L
399.941 804.041 L
400.559 553.535 L
401.176 763.96 L
401.793 934.304 L
402.411 656.242 L
403.028 846.627 L
403.645 588.605 L
404.263 791.515 L
404.88 543.514 L
405.497 756.444 L
406.115 926.789 L
406.732 651.232 L
407.349 844.122 L
407.967 583.595 L
408.584 789.01 L
409.201 954.344 L
409.819 673.777 L
410.436 859.152 L
411.053 598.626 L
411.671 801.536 L
412.288 961.859 L
412.905 678.788 L
413.523 866.667 L
414.14 601.131 L
414.757 804.041 L
415.375 553.535 L
415.992 763.96 L
416.609 934.304 L
417.227 656.242 L
417.844 846.627 L
418.461 588.605 L
419.079 791.515 L
419.696 956.849 L
420.313 673.777 L
420.931 861.657 L
421.548 598.626 L
422.165 801.536 L
422.783 961.859 L
423.4 678.788 L
424.017 866.667 L
424.635 603.636 L
425.252 804.041 L
425.869 553.535 L
426.487 763.96 L
427.104 934.304 L
427.721 656.242 L
428.339 846.627 L
428.956 588.605 L
429.573 791.515 L
430.191 956.849 L
430.808 673.777 L
431.425 861.657 L
432.043 598.626 L
432.66 801.536 L
433.277 961.859 L
433.895 678.788 L
434.512 866.667 L
435.129 603.636 L
435.747 804.041 L
436.364 553.535 L
436.981 763.96 L
437.599 934.304 L
438.216 656.242 L
438.833 846.627 L
439.451 588.605 L
440.068 791.515 L
440.685 543.514 L
441.303 756.444 L
441.92 926.789 L
442.537 651.232 L
443.155 844.122 L
443.772 583.595 L
444.389 789.01 L
445.007 954.344 L
445.624 673.777 L
446.241 859.152 L
446.859 598.626 L
447.476 801.536 L
448.093 961.859 L
448.711 678.788 L
449.328 866.667 L
449.945 601.131 L
450.563 804.041 L
451.18 553.535 L
451.797 763.96 L
452.415 934.304 L
453.032 656.242 L
453.649 846.627 L
454.267 588.605 L
454.884 791.515 L
455.501 543.514 L
456.119 756.444 L
456.736 926.789 L
457.353 651.232 L
457.971 844.122 L
458.588 583.595 L
459.205 789.01 L
459.823 541.009 L
460.44 753.939 L
461.057 926.789 L
461.675 651.232 L
462.292 841.617 L
462.909 583.595 L
463.527 789.01 L
464.144 954.344 L
464.761 671.272 L
465.379 859.152 L
465.996 598.626 L
466.613 799.03 L
467.231 548.524 L
467.848 761.455 L
468.465 931.799 L
469.083 653.737 L
469.7 846.627 L
470.317 586.1 L
470.935 791.515 L
471.552 954.344 L
472.169 673.777 L
472.787 861.657 L
473.404 598.626 L
474.021 801.536 L
474.639 551.029 L
475.256 761.455 L
475.873 931.799 L
476.491 656.242 L
477.108 846.627 L
477.725 586.1 L
478.343 791.515 L
478.96 543.514 L
479.577 756.444 L
480.195 926.789 L
480.812 651.232 L
481.429 844.122 L
482.047 583.595 L
482.664 789.01 L
483.281 541.009 L
483.899 753.939 L
484.516 926.789 L
485.133 651.232 L
485.751 841.617 L
486.368 583.595 L
486.985 789.01 L
487.603 541.009 L
488.22 753.939 L
488.837 926.789 L
489.455 651.232 L
490.072 841.617 L
490.689 583.595 L
491.307 789.01 L
491.924 541.009 L
492.541 753.939 L
493.159 926.789 L
493.776 651.232 L
494.393 841.617 L
495.011 583.595 L
495.628 789.01 L
496.245 541.009 L
496.863 753.939 L
497.48 926.789 L
498.097 651.232 L
498.715 841.617 L
499.332 583.595 L
499.949 789.01 L
500.567 541.009 L
501.184 753.939 L
501.801 926.789 L
502.419 651.232 L
503.036 841.617 L
503.653 583.595 L
504.271 789.01 L
504.888 541.009 L
505.505 753.939 L
506.123 926.789 L
506.74 651.232 L
507.357 841.617 L
507.975 583.595 L
508.592 789.01 L
509.209 541.009 L
509.827 753.939 L
510.444 926.789 L
511.061 651.232 L
511.679 841.617 L
512.296 583.595 L
512.913 789.01 L
513.531 541.009 L
514.148 753.939 L
514.765 926.789 L
515.383 651.232 L
516 841.617 L
516.617 583.595 L
517.235 789.01 L
517.852 541.009 L
518.469 753.939 L
519.087 926.789 L
519.704 651.232 L
520.321 841.617 L
520.939 583.595 L
521.556 789.01 L
522.173 541.009 L
522.791 753.939 L
523.408 513.454 L
524.025 733.899 L
524.643 909.253 L
525.26 636.202 L
525.877 831.596 L
526.495 573.575 L
527.112 781.495 L
527.729 535.999 L
528.347 748.929 L
528.964 921.778 L
529.581 646.222 L
530.199 839.111 L
530.816 581.09 L
531.433 786.505 L
532.051 538.504 L
532.668 753.939 L
533.285 924.284 L
533.903 648.727 L
534.52 841.617 L
535.137 583.595 L
535.755 789.01 L
536.372 541.009 L
536.989 753.939 L
537.607 513.454 L
538.224 733.899 L
538.841 909.253 L
539.459 636.202 L
540.076 831.596 L
540.693 573.575 L
541.311 781.495 L
541.928 535.999 L
542.545 748.929 L
543.163 921.778 L
543.78 646.222 L
544.397 839.111 L
545.015 581.09 L
545.632 786.505 L
546.249 538.504 L
546.867 753.939 L
547.484 924.284 L
548.101 648.727 L
548.719 841.617 L
549.336 583.595 L
549.953 789.01 L
550.571 541.009 L
551.188 753.939 L
551.805 926.789 L
552.423 651.232 L
553.04 841.617 L
553.657 583.595 L
554.275 789.01 L
554.892 541.009 L
555.509 753.939 L
556.127 513.454 L
556.744 733.899 L
557.361 909.253 L
557.979 636.202 L
558.596 831.596 L
559.213 573.575 L
559.831 781.495 L
560.448 535.999 L
561.065 748.929 L
561.683 508.443 L
562.3 728.889 L
562.917 906.748 L
563.535 633.696 L
564.152 829.091 L
564.769 573.575 L
565.387 781.495 L
566.004 533.494 L
566.621 748.929 L
567.239 921.778 L
567.856 646.222 L
568.473 839.111 L
569.091 581.09 L
569.708 786.505 L
570.325 538.504 L
570.943 753.939 L
571.56 513.454 L
572.177 731.394 L
572.795 495.918 L
573.412 718.869 L
574.029 896.728 L
574.647 626.181 L
575.264 824.081 L
575.881 568.565 L
576.499 776.485 L
577.116 530.989 L
577.733 746.424 L
578.351 919.273 L
578.968 646.222 L
579.585 839.111 L
580.203 581.09 L
580.82 786.505 L
581.437 538.504 L
582.055 753.939 L
582.672 510.948 L
583.289 731.394 L
583.907 495.918 L
584.524 718.869 L
585.141 896.728 L
585.759 626.181 L
586.376 824.081 L
586.993 568.565 L
587.611 776.485 L
588.228 530.989 L
588.845 746.424 L
589.463 919.273 L
590.08 646.222 L
590.697 839.111 L
591.315 581.09 L
591.932 786.505 L
592.549 538.504 L
593.167 753.939 L
593.784 510.948 L
594.401 731.394 L
595.019 495.918 L
595.636 718.869 L
596.253 896.728 L
596.871 626.181 L
597.488 824.081 L
598.105 568.565 L
598.723 776.485 L
599.34 530.989 L
599.957 746.424 L
600.575 919.273 L
601.192 646.222 L
601.809 839.111 L
602.427 581.09 L
603.044 786.505 L
603.661 538.504 L
604.279 753.939 L
604.896 510.948 L
605.513 731.394 L
606.131 495.918 L
606.748 718.869 L
607.365 896.728 L
607.983 626.181 L
608.6 824.081 L
609.217 568.565 L
609.835 776.485 L
610.452 530.989 L
611.069 746.424 L
611.687 505.938 L
612.304 728.889 L
612.921 904.243 L
613.539 633.696 L
614.156 829.091 L
614.773 573.575 L
615.391 778.99 L
616.008 533.494 L
616.625 748.929 L
617.243 508.443 L
617.86 728.889 L
618.477 906.748 L
619.095 633.696 L
619.712 829.091 L
620.329 573.575 L
620.947 781.495 L
621.564 533.494 L
622.181 748.929 L
622.799 508.443 L
623.416 728.889 L
624.033 493.413 L
624.651 716.363 L
625.268 894.223 L
625.885 626.181 L
626.503 824.081 L
627.12 568.565 L
627.737 776.485 L
628.355 530.989 L
628.972 746.424 L
629.589 919.273 L
630.207 646.222 L
630.824 839.111 L
631.441 581.09 L
632.059 786.505 L
632.676 538.504 L
633.293 753.939 L
633.911 510.948 L
634.528 731.394 L
635.145 495.918 L
635.763 718.869 L
636.38 896.728 L
636.997 626.181 L
637.615 824.081 L
638.232 568.565 L
638.849 776.485 L
639.467 530.989 L
640.084 746.424 L
640.701 919.273 L
641.319 646.222 L
641.936 839.111 L
642.553 581.09 L
643.171 786.505 L
643.788 538.504 L
644.405 753.939 L
645.023 510.948 L
645.64 731.394 L
646.257 495.918 L
646.875 718.869 L
647.492 896.728 L
648.109 626.181 L
648.727 824.081 L
649.344 568.565 L
649.961 776.485 L
650.579 530.989 L
651.196 746.424 L
651.813 505.938 L
652.431 728.889 L
653.048 490.908 L
653.665 716.363 L
654.283 894.223 L
654.9 626.181 L
655.517 821.576 L
656.135 568.565 L
656.752 776.485 L
657.369 530.989 L
657.987 746.424 L
658.604 919.273 L
659.221 646.222 L
659.839 839.111 L
660.456 581.09 L
661.073 786.505 L
661.691 538.504 L
662.308 753.939 L
662.925 510.948 L
663.543 731.394 L
664.16 495.918 L
664.777 718.869 L
665.395 483.393 L
666.012 708.848 L
666.629 889.213 L
667.247 621.171 L
667.864 819.071 L
668.481 566.06 L
669.099 773.98 L
669.716 528.484 L
670.333 746.424 L
670.951 505.938 L
671.568 726.384 L
672.185 904.243 L
672.803 631.191 L
673.42 829.091 L
674.037 571.07 L
674.655 778.99 L
675.272 533.494 L
675.889 748.929 L
676.507 508.443 L
677.124 728.889 L
677.741 493.413 L
678.359 716.363 L
678.976 483.393 L
679.593 708.848 L
680.211 475.878 L
680.828 703.838 L
681.445 884.203 L
682.063 616.161 L
682.68 816.566 L
683.297 561.05 L
683.915 771.475 L
684.532 525.979 L
685.149 743.919 L
685.767 503.433 L
686.384 726.384 L
687.001 490.908 L
687.619 713.858 L
688.236 894.223 L
688.853 623.676 L
689.471 821.576 L
690.088 566.06 L
690.705 776.485 L
691.323 530.989 L
691.94 746.424 L
692.557 505.938 L
693.175 726.384 L
693.792 490.908 L
694.409 716.363 L
695.027 480.888 L
695.644 706.343 L
696.261 475.878 L
696.879 703.838 L
697.496 884.203 L
698.113 616.161 L
698.731 816.566 L
699.348 561.05 L
699.965 771.475 L
700.583 525.979 L
701.2 743.919 L
701.817 503.433 L
702.435 726.384 L
703.052 490.908 L
703.669 713.858 L
704.287 894.223 L
704.904 623.676 L
705.521 821.576 L
706.139 566.06 L
706.756 776.485 L
707.373 530.989 L
707.991 746.424 L
708.608 505.938 L
709.225 726.384 L
709.843 490.908 L
710.46 716.363 L
711.077 480.888 L
711.695 706.343 L
712.312 475.878 L
712.929 703.838 L
713.547 884.203 L
714.164 616.161 L
714.781 816.566 L
715.399 561.05 L
716.016 771.475 L
716.633 525.979 L
717.251 743.919 L
717.868 503.433 L
718.485 726.384 L
719.103 490.908 L
719.72 713.858 L
720.337 480.888 L
720.955 706.343 L
721.572 886.708 L
722.189 618.666 L
722.807 819.071 L
723.424 563.555 L
724.041 773.98 L
724.659 528.484 L
725.276 743.919 L
725.893 505.938 L
726.511 726.384 L
727.128 490.908 L
727.745 713.858 L
728.363 480.888 L
728.98 706.343 L
729.597 886.708 L
730.215 618.666 L
730.832 819.071 L
731.449 563.555 L
732.067 773.98 L
732.684 528.484 L
733.301 743.919 L
733.919 505.938 L
734.536 726.384 L
735.153 490.908 L
735.771 713.858 L
736.388 894.223 L
737.005 623.676 L
737.623 821.576 L
738.24 566.06 L
738.857 776.485 L
739.475 530.989 L
740.092 746.424 L
740.709 505.938 L
741.327 726.384 L
741.944 490.908 L
742.561 716.363 L
743.179 480.888 L
743.796 708.848 L
744.413 475.878 L
745.031 703.838 L
745.648 884.203 L
746.265 616.161 L
746.883 816.566 L
747.5 561.05 L
748.117 771.475 L
748.735 525.979 L
749.352 743.919 L
749.969 503.433 L
750.587 726.384 L
751.204 490.908 L
751.821 713.858 L
752.439 480.888 L
753.056 706.343 L
753.673 475.878 L
754.291 701.333 L
754.908 884.203 L
755.525 616.161 L
756.143 816.566 L
756.76 561.05 L
757.377 771.475 L
757.995 525.979 L
758.612 743.919 L
759.229 503.433 L
759.847 726.384 L
760.464 490.908 L
761.081 713.858 L
761.699 480.888 L
762.316 706.343 L
762.933 475.878 L
763.551 701.333 L
764.168 884.203 L
764.785 616.161 L
765.403 816.566 L
766.02 561.05 L
766.637 771.475 L
767.255 525.979 L
767.872 743.919 L
768.489 503.433 L
769.107 726.384 L
769.724 490.908 L
770.341 713.858 L
770.959 480.888 L
771.576 706.343 L
772.193 475.878 L
772.811 701.333 L
773.428 470.867 L
774.045 698.828 L
774.663 468.362 L
775.28 696.323 L
775.897 879.193 L
776.515 613.656 L
777.132 814.061 L
777.749 561.05 L
778.367 768.97 L
778.984 525.979 L
779.601 741.414 L
780.219 503.433 L
780.836 723.879 L
781.453 488.403 L
782.071 713.858 L
782.688 480.888 L
783.305 706.343 L
783.923 475.878 L
784.54 701.333 L
785.157 470.867 L
785.775 698.828 L
786.392 881.697 L
787.009 613.656 L
787.627 814.061 L
788.244 561.05 L
788.861 771.475 L
789.479 525.979 L
790.096 743.919 L
790.713 503.433 L
791.331 726.384 L
791.948 490.908 L
792.565 713.858 L
793.183 480.888 L
793.8 706.343 L
794.417 475.878 L
795.035 701.333 L
795.652 470.867 L
796.269 698.828 L
796.887 881.697 L
797.504 613.656 L
798.121 814.061 L
798.739 561.05 L
799.356 771.475 L
799.973 525.979 L
800.591 743.919 L
801.208 503.433 L
801.825 726.384 L
802.443 490.908 L
803.06 713.858 L
803.677 480.888 L
804.295 706.343 L
804.912 475.878 L
805.529 701.333 L
806.147 470.867 L
806.764 698.828 L
807.381 468.362 L
807.999 696.323 L
808.616 879.193 L
809.233 613.656 L
809.851 814.061 L
810.468 561.05 L
811.085 768.97 L
811.703 525.979 L
812.32 741.414 L
812.937 503.433 L
813.555 723.879 L
814.172 488.403 L
814.789 713.858 L
815.407 480.888 L
816.024 706.343 L
816.641 475.878 L
817.259 701.333 L
817.876 470.867 L
818.493 285.493 L
819.111 137.694 L
819.728 433.292 L
820.345 255.432 L
820.963 525.979 L
821.58 330.584 L
822.197 586.1 L
822.815 791.515 L
823.432 543.514 L
824.049 756.444 L
824.667 515.959 L
825.284 733.899 L
825.901 495.918 L
826.519 718.869 L
827.136 485.898 L
827.753 711.353 L
828.371 478.383 L
828.988 703.838 L
829.605 473.373 L
830.223 701.333 L
830.84 470.867 L
831.457 698.828 L
832.075 468.362 L
832.692 696.323 L
833.309 465.857 L
833.927 696.323 L
834.544 465.857 L
835.161 693.818 L
835.779 465.857 L
836.396 693.818 L
837.013 465.857 L
837.631 693.818 L
838.248 465.857 L
838.865 693.818 L
839.483 465.857 L
840.1 693.818 L
840.717 465.857 L
841.335 693.818 L
841.952 876.687 L
842.569 611.151 L
843.187 811.556 L
843.804 558.545 L
844.421 768.97 L
845.039 525.979 L
845.656 741.414 L
846.273 503.433 L
846.891 723.879 L
847.508 488.403 L
848.125 713.858 L
848.743 480.888 L
849.36 706.343 L
849.977 475.878 L
850.595 701.333 L
851.212 470.867 L
851.829 698.828 L
852.447 468.362 L
853.064 696.323 L
853.681 468.362 L
854.299 696.323 L
854.916 465.857 L
855.533 696.323 L
856.151 465.857 L
856.768 693.818 L
857.385 465.857 L
858.003 693.818 L
858.62 876.687 L
859.237 611.151 L
859.855 398.221 L
860.472 641.212 L
861.089 834.101 L
861.707 578.585 L
862.324 784 L
862.941 535.999 L
863.559 751.434 L
864.176 510.948 L
864.793 731.394 L
865.411 493.413 L
866.028 716.363 L
866.645 483.393 L
867.263 708.848 L
867.88 475.878 L
868.497 703.838 L
869.115 473.373 L
869.732 698.828 L
870.349 468.362 L
870.967 698.828 L
871.584 468.362 L
872.201 696.323 L
872.819 465.857 L
873.436 696.323 L
874.053 465.857 L
874.671 693.818 L
875.288 465.857 L
875.905 693.818 L
876.523 465.857 L
877.14 693.818 L
877.757 876.687 L
878.375 611.151 L
878.992 398.221 L
879.609 641.212 L
880.227 834.101 L
880.844 578.585 L
881.461 784 L
882.079 535.999 L
882.696 751.434 L
883.313 510.948 L
883.931 731.394 L
884.548 493.413 L
885.165 716.363 L
885.783 483.393 L
886.4 708.848 L
887.017 475.878 L
887.635 703.838 L
888.252 473.373 L
888.869 698.828 L
889.487 468.362 L
890.104 698.828 L
890.721 468.362 L
891.339 696.323 L
891.956 465.857 L
892.573 696.323 L
893.191 465.857 L
893.808 693.818 L
894.425 465.857 L
895.043 693.818 L
895.66 465.857 L
896.277 693.818 L
896.895 465.857 L
897.512 693.818 L
898.129 465.857 L
898.747 693.818 L
899.364 465.857 L
899.981 693.818 L
900.599 465.857 L
901.216 693.818 L
901.833 465.857 L
902.451 693.818 L
903.068 465.857 L
903.685 693.818 L
904.303 465.857 L
904.92 693.818 L
905.537 465.857 L
906.155 693.818 L
906.772 465.857 L
907.389 693.818 L
908.007 465.857 L
908.624 693.818 L
909.241 465.857 L
909.859 693.818 L
910.476 465.857 L
911.093 693.818 L
911.711 465.857 L
912.328 693.818 L
912.945 465.857 L
913.563 693.818 L
914.18 465.857 L
914.797 693.818 L
915.415 465.857 L
916.032 693.818 L
916.649 465.857 L
917.267 693.818 L
917.884 465.857 L
918.501 693.818 L
919.119 465.857 L
919.736 693.818 L
920.353 465.857 L
920.971 693.818 L
921.588 465.857 L
922.205 693.818 L
922.823 465.857 L
923.44 693.818 L
924.057 465.857 L
924.675 693.818 L
925.292 465.857 L
925.909 693.818 L
926.527 876.687 L
927.144 611.151 L
927.761 398.221 L
928.379 641.212 L
928.996 834.101 L
929.613 578.585 L
930.231 784 L
930.848 535.999 L
931.465 751.434 L
932.083 510.948 L
932.7 731.394 L
933.317 493.413 L
933.935 716.363 L
934.552 483.393 L
935.169 708.848 L
935.787 475.878 L
936.404 703.838 L
937.021 473.373 L
937.639 698.828 L
938.256 468.362 L
938.873 698.828 L
939.491 468.362 L
940.108 696.323 L
940.725 465.857 L
941.343 696.323 L
941.96 465.857 L
942.577 693.818 L
943.195 465.857 L
943.812 693.818 L
944.429 465.857 L
945.047 693.818 L
945.664 465.857 L
946.281 693.818 L
946.899 465.857 L
947.516 693.818 L
948.133 465.857 L
948.751 693.818 L
949.368 465.857 L
949.985 693.818 L
950.603 876.687 L
951.22 611.151 L
951.837 811.556 L
952.455 558.545 L
953.072 768.97 L
953.689 525.979 L
954.307 741.414 L
954.924 503.433 L
955.541 723.879 L
956.159 488.403 L
956.776 713.858 L
957.393 480.888 L
958.011 706.343 L
958.628 475.878 L
959.245 701.333 L
959.863 470.867 L
960.48 698.828 L
961.097 468.362 L
961.715 696.323 L
962.332 468.362 L
962.949 696.323 L
963.567 465.857 L
964.184 696.323 L
964.801 465.857 L
965.419 693.818 L
966.036 465.857 L
966.653 693.818 L
967.271 876.687 L
967.888 611.151 L
968.505 398.221 L
969.123 641.212 L
969.74 834.101 L
970.357 578.585 L
970.975 784 L
971.592 535.999 L
972.209 751.434 L
972.827 510.948 L
973.444 731.394 L
974.061 493.413 L
974.679 716.363 L
975.296 483.393 L
975.913 708.848 L
976.531 475.878 L
977.148 703.838 L
977.765 473.373 L
978.383 698.828 L
979 468.362 L
979.617 698.828 L
980.235 468.362 L
980.852 696.323 L
981.469 465.857 L
982.087 696.323 L
982.704 465.857 L
983.321 693.818 L
983.939 879.193 L
984.556 611.151 L
985.173 811.556 L
985.791 558.545 L
986.408 768.97 L
987.025 525.979 L
987.643 741.414 L
988.26 503.433 L
988.877 723.879 L
989.495 488.403 L
990.112 713.858 L
990.729 480.888 L
991.347 706.343 L
991.964 475.878 L
992.581 701.333 L
993.199 470.867 L
993.816 698.828 L
994.433 468.362 L
995.051 696.323 L
995.668 879.193 L
996.285 613.656 L
996.903 814.061 L
997.52 561.05 L
998.137 768.97 L
998.755 525.979 L
999.372 741.414 L
999.989 503.433 L
1000.607 723.879 L
1001.224 488.403 L
1001.841 713.858 L
1002.459 480.888 L
1003.076 706.343 L
1003.693 475.878 L
1004.311 701.333 L
1004.928 470.867 L
1005.545 698.828 L
1006.163 468.362 L
1006.78 696.323 L
1007.397 468.362 L
1008.015 696.323 L
1008.632 465.857 L
1009.249 696.323 L
1009.867 879.193 L
1010.484 611.151 L
1011.101 811.556 L
1011.719 558.545 L
1012.336 768.97 L
1012.953 525.979 L
1013.571 741.414 L
1014.188 503.433 L
1014.805 723.879 L
1015.423 488.403 L
1016.04 713.858 L
1016.657 480.888 L
1017.275 706.343 L
1017.892 475.878 L
1018.509 701.333 L
1019.127 470.867 L
1019.744 698.828 L
1020.361 468.362 L
1020.979 696.323 L
1021.596 879.193 L
1022.213 613.656 L
1022.831 814.061 L
1023.448 561.05 L
1024.065 768.97 L
1024.683 525.979 L
1025.3 741.414 L
1025.917 503.433 L
1026.535 723.879 L
1027.152 488.403 L
1027.769 713.858 L
1028.387 480.888 L
1029.004 706.343 L
1029.621 475.878 L
1030.239 701.333 L
1030.856 470.867 L
1031.473 698.828 L
1032.091 468.362 L
1032.708 696.323 L
1033.325 468.362 L
1033.943 696.323 L
1034.56 465.857 L
1035.177 696.323 L
1035.795 879.193 L
1036.412 611.151 L
1037.029 811.556 L
1037.647 558.545 L
1038.264 768.97 L
1038.881 525.979 L
1039.499 741.414 L
1040.116 503.433 L
1040.733 723.879 L
1041.351 488.403 L
1041.968 713.858 L
1042.585 480.888 L
1043.203 706.343 L
1043.82 475.878 L
1044.437 701.333 L
1045.055 470.867 L
1045.672 698.828 L
1046.289 468.362 L
1046.907 696.323 L
1047.524 468.362 L
1048.141 696.323 L
1048.759 465.857 L
1049.376 696.323 L
1049.993 465.857 L
1050.611 693.818 L
1051.228 465.857 L
1051.845 693.818 L
1052.463 876.687 L
1053.08 611.151 L
1053.697 811.556 L
1054.315 558.545 L
1054.932 768.97 L
1055.549 525.979 L
1056.167 741.414 L
1056.784 503.433 L
1057.401 723.879 L
1058.019 488.403 L
1058.636 713.858 L
1059.253 480.888 L
1059.871 706.343 L
1060.488 475.878 L
1061.105 701.333 L
1061.723 470.867 L
1062.34 698.828 L
1062.957 468.362 L
1063.575 696.323 L
1064.192 468.362 L
1064.809 696.323 L
1065.427 465.857 L
1066.044 696.323 L
1066.661 879.193 L
1067.279 611.151 L
1067.896 811.556 L
1068.513 558.545 L
1069.131 768.97 L
1069.748 525.979 L
1070.365 741.414 L
1070.983 503.433 L
1071.6 723.879 L
1072.217 488.403 L
1072.835 713.858 L
1073.452 480.888 L
1074.069 706.343 L
1074.687 475.878 L
1075.304 701.333 L
1075.921 470.867 L
1076.539 698.828 L
1077.156 468.362 L
1077.773 696.323 L
1078.391 468.362 L
1079.008 696.323 L
1079.625 465.857 L
1080.243 696.323 L
1080.86 879.193 L
1081.477 611.151 L
1082.095 811.556 L
1082.712 558.545 L
1083.329 768.97 L
1083.947 525.979 L
1084.564 741.414 L
1085.181 503.433 L
1085.799 723.879 L
1086.416 488.403 L
1087.033 713.858 L
1087.651 480.888 L
1088.268 706.343 L
1088.885 475.878 L
1089.503 701.333 L
1090.12 470.867 L
1090.737 698.828 L
1091.355 468.362 L
1091.972 696.323 L
1092.589 468.362 L
1093.207 696.323 L
1093.824 465.857 L
1094.441 696.323 L
1095.059 465.857 L
1095.676 693.818 L
1096.293 465.857 L
1096.911 693.818 L
1097.528 876.687 L
1098.145 611.151 L
1098.763 811.556 L
1099.38 558.545 L
1099.997 768.97 L
1100.615 525.979 L
1101.232 741.414 L
1101.849 503.433 L
1102.467 723.879 L
1103.084 488.403 L
1103.701 713.858 L
1104.319 480.888 L
1104.936 706.343 L
1105.553 475.878 L
1106.171 701.333 L
1106.788 470.867 L
1107.405 698.828 L
1108.023 468.362 L
1108.64 696.323 L
1109.257 468.362 L
1109.875 696.323 L
1110.492 465.857 L
1111.109 696.323 L
1111.727 465.857 L
1112.344 693.818 L
1112.961 465.857 L
1113.579 693.818 L
1114.196 876.687 L
1114.813 611.151 L
1115.431 398.221 L
1116.048 641.212 L
1116.665 834.101 L
1117.283 578.585 L
1117.9 784 L
1118.517 535.999 L
1119.135 751.434 L
1119.752 510.948 L
1120.369 731.394 L
1120.987 493.413 L
1121.604 716.363 L
1122.221 483.393 L
1122.839 708.848 L
1123.456 475.878 L
1124.073 703.838 L
1124.691 473.373 L
1125.308 698.828 L
1125.925 468.362 L
1126.543 698.828 L
1127.16 468.362 L
1127.777 696.323 L
1128.395 465.857 L
1129.012 696.323 L
1129.629 465.857 L
1130.247 693.818 L
1130.864 465.857 L
1131.481 693.818 L
1132.099 465.857 L
1132.716 693.818 L
1133.333 465.857 L
1133.951 693.818 L
1134.568 465.857 L
1135.185 693.818 L
1135.803 465.857 L
1136.42 693.818 L
1137.037 465.857 L
1137.655 693.818 L
1138.272 465.857 L
1138.889 693.818 L
1139.507 465.857 L
1140.124 693.818 L
1140.741 876.687 L
1141.359 611.151 L
1141.976 398.221 L
1142.593 641.212 L
1143.211 834.101 L
1143.828 578.585 L
1144.445 370.665 L
1145.063 618.666 L
1145.68 816.566 L
1146.297 563.555 L
1146.915 773.98 L
1147.532 528.484 L
1148.149 743.919 L
1148.767 505.938 L
1149.384 726.384 L
1150.001 490.908 L
1150.619 713.858 L
1151.236 480.888 L
1151.853 706.343 L
1152.471 475.878 L
1153.088 701.333 L
1153.705 470.867 L
1154.323 698.828 L
1154.94 468.362 L
1155.557 696.323 L
1156.175 468.362 L
1156.792 696.323 L
1157.409 465.857 L
1158.027 696.323 L
1158.644 465.857 L
1159.261 693.818 L
1159.879 465.857 L
1160.496 693.818 L
1161.113 465.857 L
1161.731 693.818 L
1162.348 465.857 L
1162.965 693.818 L
1163.583 465.857 L
1164.2 693.818 L
1164.817 465.857 L
1165.435 693.818 L
1166.052 465.857 L
1166.669 693.818 L
1167.287 465.857 L
1167.904 693.818 L
1168.521 465.857 L
1169.139 693.818 L
1169.756 465.857 L
1170.373 693.818 L
1170.991 465.857 L
1171.608 693.818 L
1172.225 465.857 L
1172.843 693.818 L
1173.46 465.857 L
1174.077 693.818 L
1174.695 465.857 L
1175.312 693.818 L
1175.929 465.857 L
1176.547 693.818 L
1177.164 465.857 L
1177.781 693.818 L
1178.399 465.857 L
1179.016 693.818 L
1179.633 465.857 L
1180.251 693.818 L
1180.868 465.857 L
1181.485 693.818 L
1182.103 465.857 L
1182.72 693.818 L
1183.337 465.857 L
1183.955 693.818 L
1184.572 465.857 L
1185.189 693.818 L
1185.807 465.857 L
1186.424 693.818 L
1187.041 465.857 L
1187.659 693.818 L
1188.276 465.857 L
1188.893 693.818 L
1189.511 465.857 L
1190.128 693.818 L
1190.745 465.857 L
1191.363 693.818 L
1191.98 465.857 L
1192.597 693.818 L
1193.215 465.857 L
1193.832 693.818 L
1194.449 465.857 L
1195.067 693.818 L
1195.684 465.857 L
1196.301 693.818 L
1196.919 465.857 L
1197.536 693.818 L
1198.153 465.857 L
1198.771 693.818 L
1199.388 465.857 L
1200.005 693.818 L
1200.623 465.857 L
1201.24 693.818 L
1201.857 876.687 L
1202.475 611.151 L
1203.092 398.221 L
1203.709 641.212 L
1204.327 834.101 L
1204.944 578.585 L
1205.561 370.665 L
1206.179 618.666 L
1206.796 816.566 L
1207.413 563.555 L
1208.031 773.98 L
1208.648 528.484 L
1209.265 743.919 L
1209.883 505.938 L
1210.5 726.384 L
1211.117 490.908 L
1211.735 713.858 L
1212.352 480.888 L
1212.969 706.343 L
1213.587 475.878 L
1214.204 701.333 L
1214.821 470.867 L
1215.439 698.828 L
1216.056 468.362 L
1216.673 696.323 L
1217.291 468.362 L
1217.908 696.323 L
1218.525 465.857 L
1219.143 696.323 L
1219.76 465.857 L
1220.377 693.818 L
1220.995 465.857 L
1221.612 693.818 L
1222.229 465.857 L
1222.847 693.818 L
1223.464 465.857 L
1224.081 693.818 L
1224.699 465.857 L
1225.316 693.818 L
1225.933 465.857 L
1226.551 693.818 L
1227.168 465.857 L
1227.785 693.818 L
1228.403 465.857 L
1229.02 693.818 L
1229.637 465.857 L
1230.255 693.818 L
1230.872 465.857 L
1231.489 693.818 L
1232.107 465.857 L
1232.724 693.818 L
1233.341 465.857 L
1233.959 693.818 L
1234.576 465.857 L
1235.193 693.818 L
1235.811 465.857 L
1236.428 693.818 L
1237.045 465.857 L
1237.663 693.818 L
1238.28 465.857 L
1238.897 693.818 L
1239.515 465.857 L
1240.132 693.818 L
1240.749 465.857 L
1241.367 693.818 L
1241.984 465.857 L
1242.601 693.818 L
1243.219 465.857 L
1243.836 693.818 L
1244.453 465.857 L
1245.071 693.818 L
1245.688 465.857 L
1246.305 693.818 L
1246.923 465.857 L
1247.54 693.818 L
1248.157 876.687 L
1248.775 611.151 L
1249.392 398.221 L
1250.009 641.212 L
1250.627 834.101 L
1251.244 578.585 L
1251.861 784 L
1252.479 535.999 L
1253.096 751.434 L
1253.713 510.948 L
1254.331 731.394 L
1254.948 493.413 L
1255.565 716.363 L
1256.183 483.393 L
1256.8 708.848 L
1257.417 475.878 L
1258.035 703.838 L
1258.652 473.373 L
1259.269 698.828 L
1259.887 468.362 L
1260.504 698.828 L
1261.121 468.362 L
1261.739 696.323 L
1262.356 465.857 L
1262.973 696.323 L
1263.591 465.857 L
1264.208 693.818 L
1264.825 465.857 L
1265.443 693.818 L
1266.06 465.857 L
1266.677 693.818 L
1267.295 465.857 L
1267.912 693.818 L
1268.529 465.857 L
1269.147 693.818 L
1269.764 465.857 L
1270.381 693.818 L
1270.999 465.857 L
1271.616 693.818 L
1272.233 465.857 L
1272.851 693.818 L
1273.468 465.857 L
1274.085 693.818 L
1274.703 465.857 L
1275.32 693.818 L
1275.937 465.857 L
1276.555 693.818 L
1277.172 465.857 L
1277.789 693.818 L
1278.407 465.857 L
1279.024 693.818 L
1279.641 876.687 L
1280.259 611.151 L
1280.876 811.556 L
1281.493 558.545 L
1282.111 768.97 L
1282.728 523.474 L
1283.345 741.414 L
1283.963 503.433 L
1284.58 723.879 L
1285.197 488.403 L
1285.815 713.858 L
1286.432 480.888 L
1287.049 706.343 L
1287.667 475.878 L
1288.284 701.333 L
1288.901 470.867 L
1289.519 698.828 L
1290.136 468.362 L
1290.753 696.323 L
1291.371 468.362 L
1291.988 696.323 L
1292.605 465.857 L
1293.223 696.323 L
1293.84 465.857 L
1294.457 693.818 L
1295.075 465.857 L
1295.692 693.818 L
1296.309 465.857 L
1296.927 693.818 L
1297.544 465.857 L
1298.161 693.818 L
1298.779 876.687 L
1299.396 611.151 L
1300.013 811.556 L
1300.631 558.545 L
1301.248 768.97 L
1301.865 525.979 L
1302.483 741.414 L
1303.1 503.433 L
1303.717 723.879 L
1304.335 488.403 L
1304.952 713.858 L
1305.569 480.888 L
1306.187 706.343 L
1306.804 475.878 L
1307.421 701.333 L
1308.039 470.867 L
1308.656 698.828 L
1309.273 468.362 L
1309.891 696.323 L
1310.508 468.362 L
1311.125 696.323 L
1311.743 465.857 L
1312.36 696.323 L
1312.977 465.857 L
1313.595 693.818 L
1314.212 465.857 L
1314.829 693.818 L
1315.447 876.687 L
1316.064 611.151 L
1316.681 811.556 L
1317.299 558.545 L
1317.916 768.97 L
1318.533 525.979 L
1319.151 741.414 L
1319.768 503.433 L
1320.385 723.879 L
1321.003 488.403 L
1321.62 713.858 L
1322.237 480.888 L
1322.855 706.343 L
1323.472 475.878 L
1324.089 701.333 L
1324.707 470.867 L
1325.324 698.828 L
1325.941 468.362 L
1326.559 696.323 L
1327.176 468.362 L
1327.793 696.323 L
1328.411 465.857 L
1329.028 696.323 L
1329.645 879.193 L
1330.263 611.151 L
1330.88 811.556 L
1331.497 558.545 L
1332.115 768.97 L
1332.732 525.979 L
1333.349 741.414 L
1333.967 503.433 L
1334.584 723.879 L
1335.201 488.403 L
1335.819 713.858 L
1336.436 480.888 L
1337.053 706.343 L
1337.671 475.878 L
1338.288 701.333 L
1338.905 470.867 L
1339.523 698.828 L
1340.14 468.362 L
1340.757 696.323 L
1341.375 879.193 L
1341.992 613.656 L
1342.609 814.061 L
1343.227 561.05 L
1343.844 768.97 L
1344.461 525.979 L
1345.079 741.414 L
1345.696 503.433 L
1346.313 723.879 L
1346.931 488.403 L
1347.548 713.858 L
1348.165 480.888 L
1348.783 706.343 L
1349.4 886.708 L
1350.017 618.666 L
1350.635 816.566 L
1351.252 563.555 L
1351.869 773.98 L
1352.487 528.484 L
1353.104 743.919 L
1353.721 505.938 L
1354.339 726.384 L
1354.956 490.908 L
1355.573 713.858 L
1356.191 480.888 L
1356.808 706.343 L
1357.425 475.878 L
1358.043 701.333 L
1358.66 470.867 L
1359.277 698.828 L
1359.895 881.697 L
1360.512 613.656 L
1361.129 814.061 L
1361.747 561.05 L
1362.364 771.475 L
1362.981 525.979 L
1363.599 743.919 L
1364.216 503.433 L
1364.833 726.384 L
1365.451 490.908 L
1366.068 713.858 L
1366.685 480.888 L
1367.303 706.343 L
1367.92 475.878 L
1368.537 701.333 L
1369.155 884.203 L
1369.772 616.161 L
1370.389 816.566 L
1371.007 561.05 L
1371.624 771.475 L
1372.241 525.979 L
1372.859 743.919 L
1373.476 503.433 L
1374.093 726.384 L
1374.711 490.908 L
1375.328 713.858 L
1375.945 480.888 L
1376.563 706.343 L
1377.18 475.878 L
1377.797 701.333 L
1378.415 470.867 L
1379.032 698.828 L
1379.649 468.362 L
1380.267 696.323 L
1380.884 468.362 L
1381.501 696.323 L
1382.119 879.193 L
1382.736 613.656 L
1383.353 811.556 L
1383.971 558.545 L
1384.588 768.97 L
1385.205 525.979 L
1385.823 741.414 L
1386.44 503.433 L
1387.057 723.879 L
1387.675 488.403 L
1388.292 713.858 L
1388.909 480.888 L
1389.527 706.343 L
1390.144 475.878 L
1390.761 701.333 L
1391.379 470.867 L
1391.996 698.828 L
1392.613 468.362 L
1393.231 696.323 L
1393.848 879.193 L
1394.465 613.656 L
1395.083 814.061 L
1395.7 561.05 L
1396.317 768.97 L
1396.935 525.979 L
1397.552 741.414 L
1398.169 503.433 L
1398.787 723.879 L
1399.404 488.403 L
1400.021 713.858 L
1400.639 480.888 L
1401.256 706.343 L
1401.873 475.878 L
1402.491 701.333 L
1403.108 470.867 L
1403.725 698.828 L
1404.343 881.697 L
1404.96 613.656 L
1405.577 814.061 L
1406.195 561.05 L
1406.812 771.475 L
1407.429 525.979 L
1408.047 743.919 L
1408.664 503.433 L
1409.281 726.384 L
1409.899 490.908 L
1410.516 713.858 L
1411.133 480.888 L
1411.751 706.343 L
1412.368 886.708 L
1412.985 618.666 L
1413.603 816.566 L
1414.22 563.555 L
1414.837 773.98 L
1415.455 528.484 L
1416.072 743.919 L
1416.689 505.938 L
1417.307 726.384 L
1417.924 490.908 L
1418.541 713.858 L
1419.159 480.888 L
1419.776 706.343 L
1420.393 886.708 L
1421.011 618.666 L
1421.628 819.071 L
1422.245 563.555 L
1422.863 773.98 L
1423.48 528.484 L
1424.097 743.919 L
1424.715 505.938 L
1425.332 726.384 L
1425.949 490.908 L
1426.567 713.858 L
1427.184 894.223 L
1427.801 623.676 L
1428.419 821.576 L
1429.036 566.06 L
1429.653 776.485 L
1430.271 530.989 L
1430.888 746.424 L
1431.505 505.938 L
1432.123 726.384 L
1432.74 490.908 L
1433.357 716.363 L
1433.975 480.888 L
1434.592 708.848 L
1435.209 475.878 L
1435.827 703.838 L
1436.444 884.203 L
1437.061 616.161 L
1437.679 816.566 L
1438.296 561.05 L
1438.913 771.475 L
1439.531 525.979 L
1440.148 743.919 L
1440.765 503.433 L
1441.383 726.384 L
1442 490.908 L
1442.617 713.858 L
1443.235 480.888 L
1443.852 706.343 L
1444.469 475.878 L
1445.087 701.333 L
1445.704 884.203 L
1446.321 616.161 L
1446.939 816.566 L
1447.556 561.05 L
1448.173 771.475 L
1448.791 525.979 L
1449.408 743.919 L
1450.025 503.433 L
1450.643 726.384 L
1451.26 490.908 L
1451.877 713.858 L
1452.495 480.888 L
1453.112 706.343 L
1453.729 475.878 L
1454.347 701.333 L
1454.964 470.867 L
1455.581 698.828 L
1456.199 468.362 L
1456.816 696.323 L
1457.433 879.193 L
1458.051 613.656 L
1458.668 814.061 L
1459.285 561.05 L
1459.903 768.97 L
1460.52 525.979 L
1461.137 741.414 L
1461.755 503.433 L
1462.372 723.879 L
1462.989 488.403 L
1463.607 713.858 L
1464.224 480.888 L
1464.841 706.343 L
1465.459 475.878 L
1466.076 701.333 L
1466.693 884.203 L
1467.311 616.161 L
1467.928 816.566 L
1468.545 561.05 L
1469.163 771.475 L
1469.78 525.979 L
1470.397 743.919 L
1471.015 503.433 L
1471.632 726.384 L
1472.249 490.908 L
1472.867 713.858 L
1473.484 480.888 L
1474.101 706.343 L
1474.719 475.878 L
1475.336 701.333 L
1475.953 884.203 L
1476.571 616.161 L
1477.188 816.566 L
1477.805 561.05 L
1478.423 771.475 L
1479.04 525.979 L
1479.657 743.919 L
1480.275 503.433 L
1480.892 726.384 L
1481.509 490.908 L
1482.127 713.858 L
1482.744 480.888 L
1483.361 706.343 L
1483.979 886.708 L
1484.596 618.666 L
1485.213 819.071 L
1485.831 563.555 L
1486.448 773.98 L
1487.065 528.484 L
1487.683 743.919 L
1488.3 505.938 L
1488.917 726.384 L
1489.535 490.908 L
1490.152 713.858 L
1490.769 480.888 L
1491.387 706.343 L
1492.004 475.878 L
1492.621 701.333 L
1493.239 884.203 L
1493.856 616.161 L
1494.473 816.566 L
1495.091 561.05 L
1495.708 771.475 L
1496.325 525.979 L
1496.943 743.919 L
1497.56 503.433 L
1498.177 726.384 L
1498.795 490.908 L
1499.412 713.858 L
1500.029 480.888 L
1500.647 706.343 L
1501.264 475.878 L
1501.881 701.333 L
1502.499 884.203 L
1503.116 616.161 L
1503.733 816.566 L
1504.351 561.05 L
1504.968 771.475 L
1505.585 525.979 L
1506.203 743.919 L
1506.82 503.433 L
1507.437 726.384 L
1508.055 490.908 L
1508.672 713.858 L
1509.289 480.888 L
1509.907 706.343 L
1510.524 886.708 L
1511.141 618.666 L
1511.759 819.071 L
1512.376 563.555 L
1512.993 773.98 L
1513.611 528.484 L
1514.228 743.919 L
1514.845 505.938 L
1515.463 726.384 L
1516.08 490.908 L
1516.697 713.858 L
1517.315 480.888 L
1517.932 706.343 L
1518.549 886.708 L
1519.167 618.666 L
1519.784 819.071 L
1520.401 563.555 L
1521.019 773.98 L
1521.636 528.484 L
1522.253 743.919 L
1522.871 505.938 L
1523.488 726.384 L
1524.105 490.908 L
1524.723 713.858 L
1525.34 480.888 L
1525.957 706.343 L
1526.575 886.708 L
1527.192 618.666 L
1527.809 819.071 L
1528.427 563.555 L
1529.044 773.98 L
1529.661 528.484 L
1530.279 743.919 L
1530.896 505.938 L
1531.513 726.384 L
1532.131 490.908 L
1532.748 713.858 L
1533.365 894.223 L
1533.983 623.676 L
1534.6 821.576 L
1535.217 566.06 L
1535.835 776.485 L
1536.452 530.989 L
1537.069 746.424 L
1537.687 505.938 L
1538.304 726.384 L
1538.921 490.908 L
1539.539 716.363 L
1540.156 894.223 L
1540.773 626.181 L
1541.391 821.576 L
1542.008 568.565 L
1542.625 776.485 L
1543.243 530.989 L
1543.86 746.424 L
1544.477 505.938 L
1545.095 726.384 L
1545.712 490.908 L
1546.329 716.363 L
1546.947 480.888 L
1547.564 708.848 L
1548.181 889.213 L
1548.799 621.171 L
1549.416 819.071 L
1550.033 563.555 L
1550.651 773.98 L
1551.268 528.484 L
1551.885 743.919 L
1552.503 505.938 L
1553.12 726.384 L
1553.737 490.908 L
1554.355 713.858 L
1554.972 480.888 L
1555.589 706.343 L
1556.207 886.708 L
1556.824 618.666 L
1557.441 819.071 L
1558.059 563.555 L
1558.676 773.98 L
1559.293 528.484 L
1559.911 743.919 L
1560.528 505.938 L
1561.145 726.384 L
1561.763 490.908 L
1562.38 713.858 L
1562.997 480.888 L
1563.615 706.343 L
1564.232 475.878 L
1564.849 701.333 L
1565.467 884.203 L
1566.084 616.161 L
1566.701 816.566 L
1567.319 561.05 L
1567.936 771.475 L
1568.553 525.979 L
1569.171 743.919 L
1569.788 503.433 L
1570.405 726.384 L
1571.023 490.908 L
1571.64 713.858 L
1572.257 480.888 L
1572.875 706.343 L
1573.492 886.708 L
1574.109 618.666 L
1574.727 819.071 L
1575.344 563.555 L
1575.961 773.98 L
1576.579 528.484 L
1577.196 743.919 L
1577.813 505.938 L
1578.431 726.384 L
1579.048 490.908 L
1579.665 713.858 L
1580.283 480.888 L
1580.9 706.343 L
1581.517 886.708 L
1582.135 618.666 L
1582.752 819.071 L
1583.369 563.555 L
1583.987 773.98 L
1584.604 528.484 L
1585.221 743.919 L
1585.839 505.938 L
1586.456 726.384 L
1587.073 490.908 L
1587.691 713.858 L
1588.308 894.223 L
1588.925 623.676 L
1589.543 821.576 L
1590.16 566.06 L
1590.777 776.485 L
1591.395 530.989 L
1592.012 746.424 L
1592.629 919.273 L
1593.247 643.717 L
1593.864 839.111 L
1594.481 581.09 L
1595.099 786.505 L
1595.716 538.504 L
1596.333 753.939 L
1596.951 510.948 L
1597.568 731.394 L
1598.185 495.918 L
1598.803 718.869 L
1599.42 896.728 L
1600.037 626.181 L
1600.655 824.081 L
1601.272 568.565 L
1601.889 776.485 L
1602.507 530.989 L
1603.124 746.424 L
1603.741 505.938 L
1604.359 728.889 L
1604.976 904.243 L
1605.593 633.696 L
1606.211 829.091 L
1606.828 573.575 L
1607.445 778.99 L
1608.063 533.494 L
1608.68 748.929 L
1609.297 508.443 L
1609.915 728.889 L
1610.532 906.748 L
1611.149 633.696 L
1611.767 829.091 L
1612.384 573.575 L
1613.001 781.495 L
1613.619 533.494 L
1614.236 748.929 L
1614.853 508.443 L
1615.471 728.889 L
1616.088 493.413 L
1616.705 716.363 L
1617.323 894.223 L
1617.94 626.181 L
1618.557 824.081 L
1619.175 568.565 L
1619.792 776.485 L
1620.409 530.989 L
1621.027 746.424 L
1621.644 505.938 L
1622.261 728.889 L
1622.879 490.908 L
1623.496 716.363 L
1624.113 894.223 L
1624.731 626.181 L
1625.348 821.576 L
1625.965 568.565 L
1626.583 776.485 L
1627.2 530.989 L
1627.817 746.424 L
1628.435 505.938 L
1629.052 726.384 L
1629.669 490.908 L
1630.287 716.363 L
1630.904 894.223 L
1631.521 626.181 L
1632.139 821.576 L
1632.756 568.565 L
1633.373 776.485 L
1633.991 530.989 L
1634.608 746.424 L
1635.225 505.938 L
1635.843 726.384 L
1636.46 490.908 L
1637.077 716.363 L
1637.695 894.223 L
1638.312 626.181 L
1638.929 821.576 L
1639.547 568.565 L
1640.164 776.485 L
1640.781 530.989 L
1641.399 746.424 L
1642.016 919.273 L
1642.633 646.222 L
1643.251 839.111 L
1643.868 581.09 L
1644.485 786.505 L
1645.103 538.504 L
1645.72 753.939 L
1646.337 510.948 L
1646.955 731.394 L
1647.572 495.918 L
1648.189 718.869 L
1648.807 896.728 L
1649.424 626.181 L
1650.041 824.081 L
1650.659 568.565 L
1651.276 776.485 L
1651.893 530.989 L
1652.511 746.424 L
1653.128 505.938 L
1653.745 728.889 L
1654.363 490.908 L
1654.98 716.363 L
1655.597 894.223 L
1656.215 626.181 L
1656.832 821.576 L
1657.449 568.565 L
1658.067 776.485 L
1658.684 530.989 L
1659.301 746.424 L
1659.919 505.938 L
1660.536 726.384 L
1661.153 904.243 L
1661.771 633.696 L
1662.388 829.091 L
1663.005 573.575 L
1663.623 778.99 L
1664.24 533.494 L
1664.857 748.929 L
1665.475 508.443 L
1666.092 728.889 L
1666.709 904.243 L
1667.327 633.696 L
1667.944 829.091 L
1668.561 573.575 L
1669.179 781.495 L
1669.796 533.494 L
1670.413 748.929 L
1671.031 508.443 L
1671.648 728.889 L
1672.265 906.748 L
1672.883 633.696 L
1673.5 829.091 L
1674.117 573.575 L
1674.735 781.495 L
1675.352 533.494 L
1675.969 748.929 L
1676.587 508.443 L
1677.204 728.889 L
1677.821 906.748 L
1678.439 633.696 L
1679.056 829.091 L
1679.673 573.575 L
1680.291 781.495 L
1680.908 533.494 L
1681.525 748.929 L
1682.143 921.778 L
1682.76 646.222 L
1683.377 839.111 L
1683.995 581.09 L
1684.612 786.505 L
1685.229 538.504 L
1685.847 753.939 L
1686.464 513.454 L
1687.081 731.394 L
1687.699 906.748 L
1688.316 636.202 L
1688.933 831.596 L
1689.551 573.575 L
1690.168 781.495 L
1690.785 533.494 L
1691.403 748.929 L
1692.02 508.443 L
1692.637 728.889 L
1693.255 906.748 L
1693.872 633.696 L
1694.489 829.091 L
1695.107 573.575 L
1695.724 781.495 L
1696.341 533.494 L
1696.959 748.929 L
1697.576 921.778 L
1698.193 646.222 L
1698.811 839.111 L
1699.428 581.09 L
1700.045 786.505 L
1700.663 538.504 L
1701.28 753.939 L
1701.897 513.454 L
1702.515 731.394 L
1703.132 495.918 L
1703.749 718.869 L
1704.367 896.728 L
1704.984 626.181 L
1705.601 824.081 L
1706.219 568.565 L
1706.836 776.485 L
1707.453 530.989 L
1708.071 746.424 L
1708.688 919.273 L
1709.305 646.222 L
1709.923 839.111 L
1710.54 581.09 L
1711.157 786.505 L
1711.775 538.504 L
1712.392 753.939 L
1713.009 924.284 L
1713.627 648.727 L
1714.244 841.617 L
1714.861 583.595 L
1715.479 789.01 L
1716.096 541.009 L
1716.713 753.939 L
1717.331 513.454 L
1717.948 731.394 L
1718.565 495.918 L
1719.183 718.869 L
1719.8 896.728 L
1720.417 626.181 L
1721.035 824.081 L
1721.652 568.565 L
1722.269 776.485 L
1722.887 530.989 L
1723.504 746.424 L
1724.121 919.273 L
1724.739 646.222 L
1725.356 839.111 L
1725.973 581.09 L
1726.591 786.505 L
1727.208 538.504 L
1727.825 753.939 L
1728.443 510.948 L
1729.06 731.394 L
1729.677 495.918 L
1730.295 718.869 L
1730.912 896.728 L
1731.529 626.181 L
1732.147 824.081 L
1732.764 568.565 L
1733.381 776.485 L
1733.999 530.989 L
1734.616 746.424 L
1735.233 919.273 L
1735.851 646.222 L
1736.468 839.111 L
1737.085 581.09 L
1737.703 786.505 L
1738.32 538.504 L
1738.937 753.939 L
1739.555 510.948 L
1740.172 731.394 L
1740.789 495.918 L
1741.407 718.869 L
1742.024 896.728 L
1742.641 626.181 L
1743.259 824.081 L
1743.876 568.565 L
1744.493 776.485 L
1745.111 530.989 L
1745.728 746.424 L
1746.345 919.273 L
1746.963 646.222 L
1747.58 839.111 L
1748.197 581.09 L
1748.815 786.505 L
1749.432 538.504 L
1750.049 753.939 L
1750.667 510.948 L
1751.284 731.394 L
1751.901 495.918 L
1752.519 718.869 L
1753.136 896.728 L
1753.753 626.181 L
1754.371 824.081 L
1754.988 568.565 L
1755.605 776.485 L
1756.223 530.989 L
1756.84 746.424 L
1757.457 919.273 L
1758.075 646.222 L
1758.692 839.111 L
1759.309 581.09 L
1759.927 786.505 L
1760.544 538.504 L
1761.161 753.939 L
1761.779 924.284 L
1762.396 648.727 L
1763.013 841.617 L
1763.631 583.595 L
1764.248 789.01 L
1764.865 541.009 L
1765.483 753.939 L
1766.1 926.789 L
1766.717 651.232 L
1767.335 841.617 L
1767.952 583.595 L
1768.569 789.01 L
1769.187 541.009 L
1769.804 753.939 L
1770.421 513.454 L
1771.039 733.899 L
1771.656 909.253 L
1772.273 636.202 L
1772.891 831.596 L
1773.508 573.575 L
1774.125 781.495 L
1774.743 535.999 L
1775.36 748.929 L
1775.977 508.443 L
1776.595 728.889 L
1777.212 906.748 L
1777.829 633.696 L
1778.447 829.091 L
1779.064 573.575 L
1779.681 781.495 L
1780.299 533.494 L
1780.916 748.929 L
1781.533 921.778 L
1782.151 646.222 L
1782.768 839.111 L
1783.385 581.09 L
1784.003 786.505 L
1784.62 538.504 L
1785.237 753.939 L
1785.855 513.454 L
1786.472 731.394 L
1787.089 495.918 L
1787.707 718.869 L
1788.324 896.728 L
1788.941 626.181 L
1789.559 824.081 L
1790.176 568.565 L
1790.793 776.485 L
1791.411 530.989 L
1792.028 746.424 L
1792.645 508.443 L
1793.263 728.889 L
1793.88 490.908 L
1794.497 716.363 L
1795.115 894.223 L
1795.732 626.181 L
1796.349 821.576 L
1796.967 568.565 L
1797.584 776.485 L
1798.201 530.989 L
1798.819 746.424 L
1799.436 505.938 L
1800.053 726.384 L
1800.671 490.908 L
1801.288 716.363 L
1801.905 894.223 L
1802.523 626.181 L
1803.14 821.576 L
1803.757 568.565 L
1804.375 776.485 L
1804.992 530.989 L
1805.609 746.424 L
1806.227 505.938 L
1806.844 726.384 L
1807.461 490.908 L
1808.079 716.363 L
1808.696 894.223 L
1809.313 626.181 L
1809.931 821.576 L
1810.548 568.565 L
1811.165 776.485 L
1811.783 530.989 L
1812.4 746.424 L
1813.017 505.938 L
1813.635 726.384 L
1814.252 490.908 L
1814.869 716.363 L
1815.487 894.223 L
1816.104 626.181 L
1816.721 821.576 L
1817.339 568.565 L
1817.956 776.485 L
1818.573 530.989 L
1819.191 746.424 L
1819.808 505.938 L
1820.425 726.384 L
1821.043 490.908 L
1821.66 716.363 L
1822.277 480.888 L
1822.895 708.848 L
1823.512 889.213 L
1824.129 621.171 L
1824.747 819.071 L
1825.364 563.555 L
1825.981 773.98 L
1826.599 528.484 L
1827.216 743.919 L
1827.833 505.938 L
1828.451 726.384 L
1829.068 904.243 L
1829.685 631.191 L
1830.303 829.091 L
1830.92 571.07 L
1831.537 778.99 L
1832.155 533.494 L
1832.772 748.929 L
1833.389 508.443 L
1834.007 728.889 L
1834.624 493.413 L
1835.241 716.363 L
1835.859 894.223 L
1836.476 626.181 L
1837.093 821.576 L
1837.711 568.565 L
1838.328 776.485 L
1838.945 530.989 L
1839.563 746.424 L
1840.18 919.273 L
1840.797 646.222 L
1841.415 839.111 L
1842.032 581.09 L
1842.649 786.505 L
1843.267 538.504 L
1843.884 753.939 L
1844.501 510.948 L
1845.119 731.394 L
1845.736 906.748 L
1846.353 636.202 L
1846.971 831.596 L
1847.588 573.575 L
1848.205 781.495 L
1848.823 533.494 L
1849.44 748.929 L
1850.057 508.443 L
1850.675 728.889 L
1851.292 906.748 L
1851.909 633.696 L
1852.527 829.091 L
1853.144 573.575 L
1853.761 781.495 L
1854.379 533.494 L
1854.996 748.929 L
1855.613 921.778 L
1856.231 646.222 L
1856.848 839.111 L
1857.465 581.09 L
1858.083 786.505 L
1858.7 538.504 L
1859.317 753.939 L
1859.935 513.454 L
1860.552 731.394 L
1861.169 906.748 L
1861.787 636.202 L
1862.404 831.596 L
1863.021 573.575 L
1863.639 781.495 L
1864.256 533.494 L
1864.873 748.929 L
1865.491 921.778 L
1866.108 646.222 L
1866.725 839.111 L
1867.343 581.09 L
1867.96 786.505 L
1868.577 538.504 L
1869.195 753.939 L
1869.812 513.454 L
1870.429 731.394 L
1871.047 906.748 L
1871.664 636.202 L
1872.281 831.596 L
1872.899 573.575 L
1873.516 781.495 L
1874.133 535.999 L
1874.751 748.929 L
1875.368 508.443 L
1875.985 728.889 L
1876.603 906.748 L
1877.22 633.696 L
1877.837 829.091 L
1878.455 573.575 L
1879.072 781.495 L
1879.689 533.494 L
1880.307 748.929 L
1880.924 508.443 L
1881.541 728.889 L
1882.159 906.748 L
1882.776 633.696 L
1883.393 829.091 L
1884.011 573.575 L
1884.628 781.495 L
1885.245 533.494 L
1885.863 748.929 L
1886.48 508.443 L
1887.097 728.889 L
1887.715 493.413 L
1888.332 716.363 L
1888.949 894.223 L
1889.567 626.181 L
1890.184 824.081 L
1890.801 568.565 L
1891.419 776.485 L
1892.036 530.989 L
1892.653 746.424 L
1893.271 505.938 L
1893.888 728.889 L
1894.505 490.908 L
1895.123 716.363 L
1895.74 894.223 L
1896.357 626.181 L
1896.975 821.576 L
1897.592 568.565 L
1898.209 776.485 L
1898.827 530.989 L
1899.444 746.424 L
1900.061 505.938 L
1900.679 726.384 L
1901.296 490.908 L
1901.913 716.363 L
1902.531 894.223 L
1903.148 626.181 L
1903.765 821.576 L
1904.383 568.565 L
1905 776.485 L
S
GR
%%Trailer
%%Pages: 1
%%EOF
